{
  "authType" : "NONE",
  "contentType" : "text/xml",
  "endpointAddress" : "http://devws.autolink.services/servicesMonza/dealer/851425/inventory/price",
  "method" : "GET",
  "requestBody" : "",
  "headers" : { },
  "queryParams" : {
    "valid" : "2016-09-12",
    "model" : "Mustang",
    "expiration" : "2016-09-12",
    "groupby" : "make,model,trim",
    "modifiedby" : "roman.dobrik@uquote.io",
    "trim" : "GT",
    "expiresin" : "48",
    "channel" : "0",
    "make" : "Ford"
  },
  "sampleHttpResponseDetails" : {
    "responseBody" : "{\"inventory\":[{\"trim\":\"GT\",\"size\":15,\"model\":\"Mustang\",\"make\":\"Ford\"}]}",
    "convertedResponse" : null,
    "statusCode" : 200,
    "headers" : {
      "Date" : [ "Sun, 11 Sep 2016 18:31:27 GMT" ],
      "Content-Length" : [ "71" ],
      "Connection" : [ "keep-alive" ],
      "Content-Type" : [ "application/json" ],
      "Server" : [ "Apache TomEE" ]
    }
  },
  "redirectEnabled" : true,
  "proxy" : null
}