{
  "basePath" : "",
  "tags" : [ {
    "description" : "Rest service swagger documentation",
    "name" : "RestServiceVirtualController"
  } ],
  "host" : "devws.autolink.services",
  "paths" : {
    "/DealerScans/invoke/scan/dealer/{dealer}" : {
      "x-WM-BASE_PATH" : "/DealerScans/invoke/scan/dealer/{dealer}",
      "x-WM-TAG" : "RestServiceVirtualController",
      "get" : {
        "tags" : [ "RestServiceVirtualController" ],
        "x-WM-METHOD_NAME" : "invoke",
        "x-WM-ACCESS_SPECIFIER" : "APP_ONLY",
        "parameters" : [ {
          "x-WM-FULLY_QUALIFIED_TYPE" : "java.lang.String",
          "items" : {
            "type" : "string"
          },
          "description" : "X-Mashape-Key",
          "name" : "X-Mashape-Key",
          "x-WM-EDITABLE" : true,
          "required" : false,
          "type" : "array",
          "in" : "header"
        }, {
          "name" : "dealer",
          "required" : true,
          "type" : "string",
          "in" : "path"
        }, {
          "name" : "userid",
          "format" : "string",
          "required" : false,
          "type" : "string",
          "in" : "query"
        } ],
        "consumes" : [ "text/xml" ],
        "responses" : {
          "200" : {
            "schema" : {
              "$ref" : "#/definitions/RootResponse"
            },
            "description" : "Success"
          }
        },
        "operationId" : "DealerScans_RestServiceVirtualController-invoke"
      },
      "x-WM-RELATIVE_PATH" : "",
      "x-WM-COMPLETE_PATH" : "${rest.DealerScans.scheme}://${rest.DealerScans.host}${rest.DealerScans.basepath}/scan/dealer/{dealer}"
    }
  },
  "schemes" : [ "http" ],
  "swagger" : "2.0",
  "definitions" : {
    "RootResponse" : {
      "x-WM-FULLY_QUALIFIED_NAME" : "DealerScans.RootResponse",
      "x-WM-TAGS" : [ "RestServiceVirtualController" ],
      "properties" : {
        "scans" : {
          "x-WM-IS_LIST" : true,
          "items" : {
            "$ref" : "#/definitions/scansEntryItem"
          },
          "type" : "array"
        }
      }
    },
    "scansEntryItem" : {
      "x-WM-FULLY_QUALIFIED_NAME" : "DealerScans.scansEntryItem",
      "x-WM-TAGS" : [ "RestServiceVirtualController" ],
      "properties" : {
        "model" : {
          "type" : "string"
        },
        "dealerid" : {
          "type" : "string"
        },
        "test" : {
          "type" : "string"
        },
        "scanid" : {
          "type" : "string"
        },
        "state" : {
          "type" : "string"
        },
        "lotprice" : {
          "type" : "string"
        },
        "type" : {
          "type" : "string"
        },
        "dealer" : {
          "type" : "string"
        },
        "msrp" : {
          "format" : "int32",
          "type" : "integer"
        },
        "created" : {
          "type" : "string"
        },
        "updated" : {
          "type" : "string"
        },
        "vin" : {
          "type" : "string"
        },
        "year" : {
          "format" : "int32",
          "type" : "integer"
        },
        "longitude" : {
          "format" : "double",
          "type" : "number"
        },
        "trim" : {
          "type" : "string"
        },
        "note" : {
          "type" : "string"
        },
        "zipcode" : {
          "type" : "string"
        },
        "image" : {
          "type" : "string"
        },
        "colorid" : {
          "type" : "string"
        },
        "pin" : {
          "type" : "string"
        },
        "color" : {
          "type" : "string"
        },
        "latitude" : {
          "format" : "double",
          "type" : "number"
        },
        "channel" : {
          "type" : "string"
        },
        "make" : {
          "type" : "string"
        },
        "dealername" : {
          "type" : "string"
        },
        "user" : {
          "type" : "string"
        }
      }
    }
  },
  "info" : {
    "x-WM-SERVICE_TYPE" : "RestService",
    "x-WM-API_ID" : "2839104d-60b6-4558-820f-b7204d0cf385",
    "x-WM-USE_PROXY_FOR_WEB" : true,
    "x-WM-SERVICE_ID" : "autolink",
    "x-WM-USE_PROXY_FOR_MOBILE" : true,
    "version" : "2.0"
  }
}