{
  "tags" : [ {
    "description" : "Rest service swagger documentation",
    "name" : "RestServiceVirtualController"
  } ],
  "basePath" : "${rest.InventoryCSV.basepath}",
  "paths" : {
    "/dealer/{dealer}/inventory/csv" : {
      "x-WM-TAG" : "RestServiceVirtualController",
      "x-WM-BASE_PATH" : "/dealer/{dealer}/inventory/csv",
      "get" : {
        "tags" : [ "RestServiceVirtualController" ],
        "x-WM-METHOD_NAME" : "invoke",
        "x-WM-ACCESS_SPECIFIER" : "APP_ONLY",
        "parameters" : [ {
          "description" : "price",
          "name" : "price",
          "x-WM-EDITABLE" : false,
          "format" : "string",
          "type" : "string",
          "required" : false,
          "in" : "query"
        }, {
          "description" : "rebate",
          "name" : "rebate",
          "x-WM-EDITABLE" : false,
          "format" : "string",
          "type" : "string",
          "required" : false,
          "in" : "query"
        }, {
          "name" : "dealer",
          "type" : "string",
          "required" : true,
          "in" : "path"
        }, {
          "name" : "discount",
          "format" : "string",
          "type" : "string",
          "required" : false,
          "in" : "query"
        }, {
          "name" : "channel",
          "format" : "int32",
          "type" : "integer",
          "required" : false,
          "in" : "query"
        } ],
        "consumes" : [ "text/xml" ],
        "responses" : {
          "200" : {
            "schema" : {
              "$ref" : "#/definitions/RootResponse"
            },
            "description" : "Success"
          }
        },
        "operationId" : "InventoryCSV_RestServiceVirtualController-invoke"
      },
      "x-WM-RELATIVE_PATH" : ""
    }
  },
  "host" : "${rest.InventoryCSV.host}",
  "schemes" : [ "${rest.InventoryCSV.scheme}" ],
  "swagger" : "2.0",
  "definitions" : {
    "RootResponse" : {
      "x-WM-FULLY_QUALIFIED_NAME" : "InventoryCSV.RootResponse",
      "x-WM-TAGS" : [ "RestServiceVirtualController" ]
    }
  },
  "info" : {
    "x-WM-SERVICE_TYPE" : "RestService",
    "x-WM-API_ID" : "a940e4fd-dec5-4f8b-8ca9-c2a07b4a7b88",
    "x-WM-USE_PROXY_FOR_WEB" : true,
    "x-WM-SERVICE_ID" : "autolink",
    "x-WM-USE_PROXY_FOR_MOBILE" : true,
    "version" : "2.0"
  }
}