{
  "tags" : [ {
    "description" : "Rest service swagger documentation",
    "name" : "RestServiceVirtualController"
  } ],
  "basePath" : "${rest.DealerQuoteResponses.basepath}",
  "paths" : {
    "/quote/dealer/{dealer}/responses" : {
      "x-WM-BASE_PATH" : "/quote/dealer/{dealer}/responses",
      "x-WM-TAG" : "RestServiceVirtualController",
      "get" : {
        "tags" : [ "RestServiceVirtualController" ],
        "x-WM-METHOD_NAME" : "invoke",
        "x-WM-ACCESS_SPECIFIER" : "APP_ONLY",
        "produces" : [ "application/json" ],
        "parameters" : [ {
          "description" : "requestid",
          "name" : "requestid",
          "x-WM-EDITABLE" : false,
          "format" : "string",
          "type" : "string",
          "required" : false,
          "in" : "query"
        }, {
          "name" : "channel",
          "format" : "string",
          "type" : "string",
          "required" : false,
          "in" : "query"
        }, {
          "name" : "dealer",
          "type" : "string",
          "required" : true,
          "in" : "path"
        }, {
          "name" : "userid",
          "format" : "string",
          "type" : "string",
          "required" : false,
          "in" : "query"
        } ],
        "consumes" : [ "text/xml" ],
        "responses" : {
          "200" : {
            "schema" : {
              "$ref" : "#/definitions/RootResponse"
            },
            "description" : "Success"
          }
        },
        "operationId" : "DealerQuoteResponses_RestServiceVirtualController-invoke"
      },
      "x-WM-RELATIVE_PATH" : "",
      "x-WM-COMPLETE_PATH" : "${rest.DealerQuoteResponses.scheme}://${rest.DealerQuoteResponses.host}${rest.DealerQuoteResponses.basepath}/quote/dealer/{dealer}/responses"
    }
  },
  "host" : "${rest.DealerQuoteResponses.host}",
  "schemes" : [ "${rest.DealerQuoteResponses.scheme}" ],
  "swagger" : "2.0",
  "definitions" : {
    "RootResponse" : {
      "x-WM-FULLY_QUALIFIED_NAME" : "DealerQuoteResponses.RootResponse",
      "x-WM-TAGS" : [ "RestServiceVirtualController" ],
      "properties" : {
        "responses" : {
          "x-WM-IS_LIST" : true,
          "items" : {
            "$ref" : "#/definitions/responsesEntryItem"
          },
          "uniqueItems" : false,
          "type" : "array"
        }
      }
    },
    "responsesEntryItem" : {
      "x-WM-FULLY_QUALIFIED_NAME" : "DealerQuoteResponses.responsesEntryItem",
      "x-WM-TAGS" : [ "RestServiceVirtualController" ],
      "properties" : {
        "phone" : {
          "type" : "string"
        },
        "model" : {
          "type" : "string"
        },
        "dealerid" : {
          "type" : "string"
        },
        "client" : {
          "type" : "string"
        },
        "dateinstock" : {
          "type" : "string"
        },
        "test" : {
          "type" : "string"
        },
        "state" : {
          "type" : "string"
        },
        "lotprice" : {
          "type" : "string"
        },
        "contact" : {
          "type" : "string"
        },
        "dealer" : {
          "type" : "string"
        },
        "stock" : {
          "type" : "string"
        },
        "msrp" : {
          "format" : "int32",
          "type" : "integer"
        },
        "netprice" : {
          "format" : "int32",
          "type" : "integer"
        },
        "updated" : {
          "type" : "string"
        },
        "created" : {
          "type" : "string"
        },
        "askingprice" : {
          "type" : "string"
        },
        "vin" : {
          "type" : "string"
        },
        "year" : {
          "format" : "int32",
          "type" : "integer"
        },
        "trim" : {
          "type" : "string"
        },
        "pricestate" : {
          "type" : "string"
        },
        "consumercash" : {
          "format" : "int32",
          "type" : "integer"
        },
        "note" : {
          "type" : "string"
        },
        "expiration" : {
          "type" : "string"
        },
        "zipcode" : {
          "type" : "string"
        },
        "colorid" : {
          "type" : "string"
        },
        "image" : {
          "type" : "string"
        },
        "dealercash" : {
          "type" : "string"
        },
        "offerprice" : {
          "format" : "int32",
          "type" : "integer"
        },
        "color" : {
          "type" : "string"
        },
        "email" : {
          "type" : "string"
        },
        "responseid" : {
          "type" : "string"
        },
        "requestid" : {
          "type" : "string"
        },
        "user" : {
          "type" : "string"
        },
        "dealername" : {
          "type" : "string"
        },
        "channel" : {
          "type" : "string"
        },
        "make" : {
          "type" : "string"
        }
      }
    }
  },
  "info" : {
    "x-WM-SERVICE_TYPE" : "RestService",
    "x-WM-API_ID" : "a31c6f6f-b693-4db3-bcf2-68aef57a7b5b",
    "x-WM-USE_PROXY_FOR_WEB" : true,
    "x-WM-SERVICE_ID" : "autolink",
    "x-WM-USE_PROXY_FOR_MOBILE" : true,
    "version" : "2.0"
  }
}