{
  "swagger" : "2.0",
  "info" : {
    "version" : "2.0",
    "x-WM-SERVICE_TYPE" : "RestService",
    "x-WM-API_ID" : "f353ad5e-da6c-4682-bd2e-3d3cbc875f24",
    "x-WM-USE_PROXY_FOR_WEB" : true,
    "x-WM-SERVICE_ID" : "autolink",
    "x-WM-USE_PROXY_FOR_MOBILE" : true
  },
  "host" : "devws.autolink.services",
  "basePath" : "/servicesMonza",
  "tags" : [ {
    "name" : "RestServiceVirtualController",
    "description" : "Rest service swagger documentation"
  } ],
  "schemes" : [ "http" ],
  "paths" : {
    "/ads/facebook/dealer/{dealer}/adsets" : {
      "get" : {
        "tags" : [ "RestServiceVirtualController" ],
        "operationId" : "GetAsSets_RestServiceVirtualController-invoke",
        "consumes" : [ "text/xml" ],
        "produces" : [ "application/json" ],
        "parameters" : [ {
          "name" : "dealer",
          "in" : "path",
          "required" : true,
          "type" : "string"
        } ],
        "responses" : {
          "200" : {
            "description" : "Success",
            "schema" : {
              "$ref" : "#/definitions/RootResponse"
            }
          }
        },
        "x-WM-METHOD_NAME" : "invoke",
        "x-WM-ACCESS_SPECIFIER" : "APP_ONLY"
      },
      "x-WM-TAG" : "RestServiceVirtualController",
      "x-WM-BASE_PATH" : "/ads/facebook/dealer/{dealer}/adsets",
      "x-WM-COMPLETE_PATH" : "${rest.GetAsSets.scheme}://${rest.GetAsSets.host}${rest.GetAsSets.basepath}/ads/facebook/dealer/{dealer}/adsets",
      "x-WM-RELATIVE_PATH" : ""
    }
  },
  "definitions" : {
    "recommendationsEntryItem" : {
      "required" : [ "blame_field", "code", "confidence", "importance", "message", "title" ],
      "properties" : {
        "message" : {
          "type" : "string"
        },
        "blame_field" : {
          "type" : "string"
        },
        "title" : {
          "type" : "string"
        },
        "importance" : {
          "type" : "string"
        },
        "code" : {
          "type" : "integer",
          "format" : "int32"
        },
        "confidence" : {
          "type" : "string"
        }
      },
      "x-WM-FULLY_QUALIFIED_NAME" : "GetAsSets.recommendationsEntryItem",
      "x-WM-TAGS" : [ "RestServiceVirtualController" ]
    },
    "RootResponse" : {
      "required" : [ "data", "paging" ],
      "properties" : {
        "data" : {
          "type" : "array",
          "uniqueItems" : false,
          "items" : {
            "$ref" : "#/definitions/dataEntryItem"
          },
          "x-WM-IS_LIST" : true
        },
        "paging" : {
          "$ref" : "#/definitions/paging"
        }
      },
      "x-WM-FULLY_QUALIFIED_NAME" : "GetAsSets.RootResponse",
      "x-WM-TAGS" : [ "RestServiceVirtualController" ]
    },
    "geo_locations" : {
      "required" : [ "countries", "location_types" ],
      "properties" : {
        "location_types" : {
          "type" : "array",
          "uniqueItems" : false,
          "items" : {
            "type" : "string"
          },
          "x-WM-IS_LIST" : true
        },
        "countries" : {
          "type" : "array",
          "uniqueItems" : false,
          "items" : {
            "type" : "string"
          },
          "x-WM-IS_LIST" : true
        }
      },
      "x-WM-FULLY_QUALIFIED_NAME" : "GetAsSets.geo_locations",
      "x-WM-TAGS" : [ "RestServiceVirtualController" ]
    },
    "targeting" : {
      "required" : [ "age_max", "age_min", "geo_locations" ],
      "properties" : {
        "geo_locations" : {
          "$ref" : "#/definitions/geo_locations"
        },
        "age_min" : {
          "type" : "integer",
          "format" : "int32"
        },
        "age_max" : {
          "type" : "integer",
          "format" : "int32"
        }
      },
      "x-WM-FULLY_QUALIFIED_NAME" : "GetAsSets.targeting",
      "x-WM-TAGS" : [ "RestServiceVirtualController" ]
    },
    "bid_info" : {
      "required" : [ "ACTIONS" ],
      "properties" : {
        "ACTIONS" : {
          "type" : "integer",
          "format" : "int32"
        }
      },
      "x-WM-FULLY_QUALIFIED_NAME" : "GetAsSets.bid_info",
      "x-WM-TAGS" : [ "RestServiceVirtualController" ]
    },
    "cursors" : {
      "required" : [ "after", "before" ],
      "properties" : {
        "after" : {
          "type" : "string"
        },
        "before" : {
          "type" : "string"
        }
      },
      "x-WM-FULLY_QUALIFIED_NAME" : "GetAsSets.cursors",
      "x-WM-TAGS" : [ "RestServiceVirtualController" ]
    },
    "campaign" : {
      "required" : [ "id" ],
      "properties" : {
        "id" : {
          "type" : "string"
        }
      },
      "x-WM-FULLY_QUALIFIED_NAME" : "GetAsSets.campaign",
      "x-WM-TAGS" : [ "RestServiceVirtualController" ]
    },
    "paging" : {
      "required" : [ "cursors" ],
      "properties" : {
        "cursors" : {
          "$ref" : "#/definitions/cursors"
        }
      },
      "x-WM-FULLY_QUALIFIED_NAME" : "GetAsSets.paging",
      "x-WM-TAGS" : [ "RestServiceVirtualController" ]
    },
    "promoted_object" : {
      "required" : [ "page_id" ],
      "properties" : {
        "page_id" : {
          "type" : "string"
        }
      },
      "x-WM-FULLY_QUALIFIED_NAME" : "GetAsSets.promoted_object",
      "x-WM-TAGS" : [ "RestServiceVirtualController" ]
    },
    "dataEntryItem" : {
      "required" : [ "account_id", "bid_amount", "bid_info", "billing_event", "budget_remaining", "campaign", "campaign_id", "configured_status", "created_time", "daily_budget", "effective_status", "frequency_cap_reset_period", "id", "is_autobid", "is_average_price_pacing", "lifetime_budget", "lifetime_imps", "name", "optimization_goal", "pacing_type", "promoted_object", "recommendations", "recurring_budget_semantics", "rtb_flag", "start_time", "status", "targeting", "updated_time", "use_new_app_click" ],
      "properties" : {
        "targeting" : {
          "$ref" : "#/definitions/targeting"
        },
        "lifetime_imps" : {
          "type" : "integer",
          "format" : "int32"
        },
        "lifetime_budget" : {
          "type" : "string"
        },
        "updated_time" : {
          "type" : "string"
        },
        "promoted_object" : {
          "$ref" : "#/definitions/promoted_object"
        },
        "frequency_cap_reset_period" : {
          "type" : "integer",
          "format" : "int32"
        },
        "id" : {
          "type" : "string"
        },
        "pacing_type" : {
          "type" : "array",
          "uniqueItems" : false,
          "items" : {
            "type" : "string"
          },
          "x-WM-IS_LIST" : true
        },
        "is_autobid" : {
          "type" : "boolean"
        },
        "name" : {
          "type" : "string"
        },
        "campaign" : {
          "$ref" : "#/definitions/campaign"
        },
        "use_new_app_click" : {
          "type" : "boolean"
        },
        "budget_remaining" : {
          "type" : "string"
        },
        "billing_event" : {
          "type" : "string"
        },
        "account_id" : {
          "type" : "string"
        },
        "optimization_goal" : {
          "type" : "string"
        },
        "status" : {
          "type" : "string"
        },
        "configured_status" : {
          "type" : "string"
        },
        "campaign_id" : {
          "type" : "string"
        },
        "rtb_flag" : {
          "type" : "boolean"
        },
        "daily_budget" : {
          "type" : "string"
        },
        "bid_info" : {
          "$ref" : "#/definitions/bid_info"
        },
        "start_time" : {
          "type" : "string"
        },
        "recurring_budget_semantics" : {
          "type" : "boolean"
        },
        "recommendations" : {
          "type" : "array",
          "uniqueItems" : false,
          "items" : {
            "$ref" : "#/definitions/recommendationsEntryItem"
          },
          "x-WM-IS_LIST" : true
        },
        "effective_status" : {
          "type" : "string"
        },
        "created_time" : {
          "type" : "string"
        },
        "is_average_price_pacing" : {
          "type" : "boolean"
        },
        "bid_amount" : {
          "type" : "integer",
          "format" : "int32"
        }
      },
      "x-WM-FULLY_QUALIFIED_NAME" : "GetAsSets.dataEntryItem",
      "x-WM-TAGS" : [ "RestServiceVirtualController" ]
    }
  }
}