{
  "tags" : [ {
    "description" : "Rest service swagger documentation",
    "name" : "RestServiceVirtualController"
  } ],
  "basePath" : "${rest.DealerUserProfile.basepath}",
  "paths" : {
    "/quote/dealer/{dealer}/user" : {
      "x-WM-BASE_PATH" : "/quote/dealer/{dealer}/user",
      "x-WM-TAG" : "RestServiceVirtualController",
      "get" : {
        "tags" : [ "RestServiceVirtualController" ],
        "x-WM-METHOD_NAME" : "invoke",
        "x-WM-ACCESS_SPECIFIER" : "APP_ONLY",
        "parameters" : [ {
          "description" : "requestid",
          "name" : "requestid",
          "x-WM-EDITABLE" : false,
          "format" : "string",
          "type" : "string",
          "required" : false,
          "in" : "query"
        }, {
          "name" : "dealer",
          "type" : "string",
          "required" : true,
          "in" : "path"
        } ],
        "consumes" : [ "text/xml" ],
        "responses" : {
          "200" : {
            "schema" : {
              "$ref" : "#/definitions/RootResponse"
            },
            "description" : "Success"
          }
        },
        "operationId" : "DealerUserProfile_RestServiceVirtualController-invoke"
      },
      "x-WM-RELATIVE_PATH" : "",
      "x-WM-COMPLETE_PATH" : "${rest.DealerUserProfile.scheme}://${rest.DealerUserProfile.host}${rest.DealerUserProfile.basepath}/quote/dealer/{dealer}/user"
    }
  },
  "host" : "${rest.DealerUserProfile.host}",
  "schemes" : [ "${rest.DealerUserProfile.scheme}" ],
  "swagger" : "2.0",
  "definitions" : {
    "RootResponse" : {
      "x-WM-FULLY_QUALIFIED_NAME" : "DealerUserProfile.RootResponse",
      "x-WM-TAGS" : [ "RestServiceVirtualController" ],
      "properties" : {
        "statecode" : {
          "type" : "string"
        },
        "phone" : {
          "type" : "string"
        },
        "fbmessengerid" : {
          "type" : "string"
        },
        "zipcode" : {
          "type" : "string"
        },
        "street" : {
          "type" : "string"
        },
        "state" : {
          "type" : "string"
        },
        "userid" : {
          "type" : "string"
        },
        "country" : {
          "type" : "string"
        },
        "city" : {
          "type" : "string"
        },
        "email" : {
          "type" : "string"
        },
        "updated" : {
          "type" : "string"
        },
        "created" : {
          "type" : "string"
        },
        "name" : {
          "type" : "string"
        },
        "fbid" : {
          "type" : "string"
        },
        "profile_pic" : {
          "type" : "string"
        },
        "devices" : {
          "type" : "string"
        },
        "profile" : {
          "type" : "string"
        }
      }
    }
  },
  "info" : {
    "x-WM-SERVICE_TYPE" : "RestService",
    "x-WM-API_ID" : "e5d1a411-20de-4c46-abb6-77beb4b58d42",
    "x-WM-USE_PROXY_FOR_WEB" : true,
    "x-WM-SERVICE_ID" : "autolink",
    "x-WM-USE_PROXY_FOR_MOBILE" : true,
    "version" : "2.0"
  }
}