{
  "addRoleServiceVariable" : {
    "_id" : "wm-addRoleServiceVariable-wm.ServiceVariable-1481562160446",
    "name" : "addRoleServiceVariable",
    "owner" : "Page",
    "category" : "wm.ServiceVariable",
    "dataBinding" : [ ],
    "type" : "string",
    "service" : "RoleChange",
    "operation" : "addRole",
    "operationId" : "RoleChangeController_addRole",
    "operationType" : "post",
    "serviceType" : "JavaService",
    "dataSet" : [ ],
    "isList" : false,
    "maxResults" : 20,
    "designMaxResults" : 10,
    "onSuccess" : "addRoleServiceVariableonSuccess($event, $scope);Variables.goToPage_Main.invoke()",
    "onError" : "Variables.invalidRoleNotificationVariable.invoke()",
    "startUpdate" : false,
    "autoUpdate" : false,
    "inFlightBehavior" : "executeLast",
    "transformationRequired" : false,
    "saveInPhonegap" : false,
    "controller" : "RoleChange"
  },
  "invalidRoleNotificationVariable" : {
    "_id" : "wm-invalidRoleNotificationVariable-wm.NotificationVariable-1481562372252",
    "name" : "invalidRoleNotificationVariable",
    "owner" : "Page",
    "category" : "wm.NotificationVariable",
    "dataBinding" : [ {
      "target" : "text",
      "value" : "Problem with role selection",
      "type" : "string"
    }, {
      "target" : "title",
      "value" : "Problem with role selection",
      "type" : "string"
    }, {
      "target" : "alerttype",
      "value" : "error",
      "type" : "list"
    } ],
    "operation" : "alert"
  }
}