{
  "swagger" : "2.0",
  "info" : {
    "version" : "2.0",
    "x-WM-SERVICE_TYPE" : "RestService",
    "x-WM-API_ID" : "46a2eec9-2caf-4caf-b133-f5644813cf58",
    "x-WM-USE_PROXY_FOR_WEB" : true,
    "x-WM-SERVICE_ID" : "autolink",
    "x-WM-USE_PROXY_FOR_MOBILE" : true
  },
  "host" : "devws.autolink.services",
  "basePath" : "/servicesMonza",
  "tags" : [ {
    "name" : "RestServiceVirtualController",
    "description" : "Rest service swagger documentation"
  } ],
  "schemes" : [ "http" ],
  "paths" : {
    "/ads/facebook/dealer/{dealer}/adimages/{vin}" : {
      "get" : {
        "tags" : [ "RestServiceVirtualController" ],
        "operationId" : "GetAdImagesInvoke_RestServiceVirtualController-invoke",
        "consumes" : [ "text/xml" ],
        "produces" : [ "application/json" ],
        "parameters" : [ {
          "name" : "usepayment",
          "in" : "query",
          "description" : "usepayment",
          "required" : false,
          "type" : "string",
          "format" : "boolean",
          "x-WM-EDITABLE" : false
        }, {
          "name" : "dealer",
          "in" : "path",
          "required" : true,
          "type" : "string"
        }, {
          "name" : "vin",
          "in" : "path",
          "required" : true,
          "type" : "string"
        } ],
        "responses" : {
          "200" : {
            "description" : "Success",
            "schema" : {
              "$ref" : "#/definitions/RootResponse"
            }
          }
        },
        "x-WM-METHOD_NAME" : "invoke",
        "x-WM-ACCESS_SPECIFIER" : "APP_ONLY"
      },
      "x-WM-TAG" : "RestServiceVirtualController",
      "x-WM-BASE_PATH" : "/ads/facebook/dealer/{dealer}/adimages/{vin}",
      "x-WM-COMPLETE_PATH" : "${rest.GetAdImagesInvoke.scheme}://${rest.GetAdImagesInvoke.host}${rest.GetAdImagesInvoke.basepath}/ads/facebook/dealer/{dealer}/adimages/{vin}",
      "x-WM-RELATIVE_PATH" : ""
    }
  },
  "definitions" : {
    "RootResponse" : {
      "required" : [ "imagelist" ],
      "properties" : {
        "imagelist" : {
          "type" : "array",
          "uniqueItems" : false,
          "items" : {
            "$ref" : "#/definitions/imagelistEntryItem"
          },
          "x-WM-IS_LIST" : true
        }
      },
      "x-WM-FULLY_QUALIFIED_NAME" : "GetAdImagesInvoke.RootResponse",
      "x-WM-TAGS" : [ "RestServiceVirtualController" ]
    },
    "imagelistEntryItem" : {
      "required" : [ "clthumbnail", "clurl", "thumbnail", "type", "url" ],
      "properties" : {
        "thumbnail" : {
          "type" : "string"
        },
        "clthumbnail" : {
          "type" : "string"
        },
        "clurl" : {
          "type" : "string"
        },
        "type" : {
          "type" : "string"
        },
        "url" : {
          "type" : "string"
        }
      },
      "x-WM-FULLY_QUALIFIED_NAME" : "GetAdImagesInvoke.imagelistEntryItem",
      "x-WM-TAGS" : [ "RestServiceVirtualController" ]
    }
  }
}