{
  "modelsVariable" : {
    "_id" : "wm-modelsVariable-wm.Variable-1459113730191",
    "name" : "modelsVariable",
    "owner" : "Page",
    "category" : "wm.Variable",
    "dataBinding" : [ ],
    "dataSet" : [ {
      "name" : "Fusion",
      "dataValue" : 10
    }, {
      "name" : "Fiesta",
      "dataValue" : 20
    }, {
      "name" : "Focus",
      "dataValue" : 23
    }, {
      "name" : "Mustang",
      "dataValue" : 5
    }, {
      "name" : "F-150",
      "dataValue" : 30
    } ],
    "type" : "entry",
    "isList" : true,
    "saveInPhonegap" : false
  },
  "QuoteRequestGraphVariable" : {
    "_id" : "wm-QuoteRequestGraphVariable-wm.ServiceVariable-1456882307235",
    "name" : "QuoteRequestGraphVariable",
    "owner" : "Page",
    "category" : "wm.ServiceVariable",
    "dataBinding" : [ {
      "target" : "X-Mashape-Key",
      "value" : "bind:Variables.mashapeKey.dataSet.dataValue",
      "type" : "string"
    }, {
      "target" : "dealer",
      "value" : "bind:Variables.dealerId.dataSet.dataValue",
      "type" : "string"
    } ],
    "type" : "DealerQuoteRequests.RootResponse",
    "service" : "DealerQuoteRequests",
    "operation" : "invoke",
    "operationId" : "DealerQuoteRequests_RestServiceVirtualController-invoke",
    "operationType" : "get",
    "serviceType" : "RestService",
    "dataSet" : {
      "dataValue" : ""
    },
    "isList" : false,
    "firstRow" : 0,
    "maxResults" : 20,
    "designMaxResults" : 10,
    "startUpdate" : true,
    "autoUpdate" : true,
    "inFlightBehavior" : "executeLast",
    "transformationRequired" : false,
    "saveInPhonegap" : false,
    "controller" : "RestServiceVirtual"
  }
}