{
  "InventorySearchTrimInvoke" : {
    "_id" : "wm-InventorySearchInvoke-wm.ServiceVariable-1484697120543",
    "name" : "InventorySearchTrimInvoke",
    "owner" : "Page",
    "category" : "wm.ServiceVariable",
    "dataBinding" : [ {
      "target" : "model",
      "value" : "bind:Widgets.modelGrid.selecteditem.model",
      "type" : "string"
    }, {
      "target" : "price",
      "value" : "true",
      "type" : "string"
    }, {
      "target" : "trim",
      "value" : "bind:Widgets.trimGrid.selecteditem.trim",
      "type" : "string"
    }, {
      "target" : "make",
      "value" : "bind:Widgets.modelGrid.selecteditem.make",
      "type" : "string"
    }, {
      "target" : "dealer",
      "value" : "bind:Variables.dealerId.dataSet.dataValue",
      "type" : "string"
    } ],
    "type" : "InventorySearchTrim.RootResponse",
    "service" : "InventorySearchTrim",
    "operation" : "invoke",
    "operationId" : "InventorySearchTrim_RestServiceVirtualController-invoke",
    "operationType" : "get",
    "serviceType" : "RestService",
    "dataSet" : [ ],
    "isList" : false,
    "maxResults" : 20,
    "designMaxResults" : 10,
    "startUpdate" : false,
    "autoUpdate" : true,
    "inFlightBehavior" : "executeLast",
    "transformationRequired" : false,
    "saveInPhonegap" : false,
    "isDefault" : true,
    "controller" : "RestServiceVirtual"
  },
  "InventoryTrimInvoke" : {
    "_id" : "wm-InventoryTrimInvoke-wm.ServiceVariable-1484694768192",
    "name" : "InventoryTrimInvoke",
    "owner" : "Page",
    "category" : "wm.ServiceVariable",
    "dataBinding" : [ {
      "target" : "model",
      "value" : "bind:Widgets.modelGrid.selecteditem.model",
      "type" : "string"
    }, {
      "target" : "groupby",
      "value" : "trim",
      "type" : "string"
    }, {
      "target" : "make",
      "value" : "bind:Widgets.modelGrid.selecteditem.make",
      "type" : "string"
    }, {
      "target" : "addstyle",
      "value" : "true",
      "type" : "string"
    }, {
      "target" : "dealer",
      "value" : "bind:Variables.dealerId.dataSet.dataValue",
      "type" : "string"
    } ],
    "type" : "InventoryTrim.RootResponse",
    "service" : "InventoryTrim",
    "operation" : "invoke",
    "operationId" : "InventoryTrim_RestServiceVirtualController-invoke",
    "operationType" : "get",
    "serviceType" : "RestService",
    "dataSet" : [ ],
    "isList" : false,
    "maxResults" : 20,
    "designMaxResults" : 10,
    "startUpdate" : false,
    "autoUpdate" : true,
    "inFlightBehavior" : "executeLast",
    "transformationRequired" : false,
    "saveInPhonegap" : false,
    "isDefault" : true,
    "controller" : "RestServiceVirtual"
  },
  "SendMessageResponseInvoke" : {
    "_id" : "wm-SendMessageResponseInvoke-wm.ServiceVariable-1494112052817",
    "name" : "SendMessageResponseInvoke",
    "owner" : "Page",
    "category" : "wm.ServiceVariable",
    "dataBinding" : [ {
      "target" : "user",
      "value" : "bind:pageParams.userid",
      "type" : "string"
    }, {
      "target" : "message",
      "value" : "bind:Widgets.formSendText.formWidgets.text1.datavalue",
      "type" : "string"
    }, {
      "target" : "dealer",
      "value" : "bind:Variables.dealerId.dataSet.dataValue",
      "type" : "string"
    } ],
    "type" : "SendMessageResponse.RootResponse",
    "service" : "SendMessageResponse",
    "operation" : "invoke",
    "operationId" : "SendMessageResponse_RestServiceVirtualController-invoke",
    "operationType" : "post",
    "serviceType" : "RestService",
    "dataSet" : [ ],
    "isList" : false,
    "maxResults" : 20,
    "onSuccess" : "Widgets.alertdialog1.open()",
    "onError" : "Widgets.alertdialog2.open()",
    "startUpdate" : false,
    "autoUpdate" : false,
    "inFlightBehavior" : "executeLast",
    "transformationRequired" : false,
    "saveInPhonegap" : false,
    "isDefault" : true,
    "controller" : "RestServiceVirtual"
  },
  "sendModelResponseVariable" : {
    "_id" : "wm-sendModelResponseVariable-wm.ServiceVariable-1484695424270",
    "name" : "sendModelResponseVariable",
    "owner" : "Page",
    "category" : "wm.ServiceVariable",
    "dataBinding" : [ {
      "target" : "user",
      "value" : "bind:pageParams.userid",
      "type" : "string"
    }, {
      "target" : "dealer",
      "value" : "bind:Variables.dealerId.dataSet.dataValue",
      "type" : "string"
    } ],
    "type" : "SendModelResponse.RootResponse",
    "service" : "SendModelResponse",
    "operation" : "invoke",
    "operationId" : "SendModelResponse_RestServiceVirtualController-invoke",
    "operationType" : "post",
    "serviceType" : "RestService",
    "dataSet" : [ ],
    "isList" : false,
    "maxResults" : 20,
    "designMaxResults" : 10,
    "onSuccess" : "Widgets.alertdialog1.open()",
    "onError" : "Widgets.alertdialog2.open()",
    "startUpdate" : false,
    "autoUpdate" : false,
    "inFlightBehavior" : "executeLast",
    "transformationRequired" : false,
    "saveInPhonegap" : false,
    "controller" : "RestServiceVirtual"
  },
  "sendTrimResponseVariable" : {
    "_id" : "wm-sendTrimResponseVariable-wm.ServiceVariable-1484696512456",
    "name" : "sendTrimResponseVariable",
    "owner" : "Page",
    "category" : "wm.ServiceVariable",
    "dataBinding" : [ {
      "target" : "model",
      "value" : "bind:Widgets.modelGrid.selecteditem.model",
      "type" : "string"
    }, {
      "target" : "make",
      "value" : "bind:Widgets.modelGrid.selecteditem.make",
      "type" : "string"
    }, {
      "target" : "user",
      "value" : "bind:pageParams.userid",
      "type" : "string"
    }, {
      "target" : "dealer",
      "value" : "bind:Variables.dealerId.dataSet.dataValue",
      "type" : "string"
    } ],
    "type" : "SendTrimResponse.RootResponse",
    "service" : "SendTrimResponse",
    "operation" : "invoke",
    "operationId" : "SendTrimResponse_RestServiceVirtualController-invoke",
    "operationType" : "post",
    "serviceType" : "RestService",
    "dataSet" : [ ],
    "isList" : false,
    "maxResults" : 20,
    "designMaxResults" : 10,
    "onSuccess" : "Widgets.alertdialog1.open()",
    "onError" : "Widgets.alertdialog2.open()",
    "startUpdate" : false,
    "autoUpdate" : false,
    "inFlightBehavior" : "executeLast",
    "transformationRequired" : false,
    "saveInPhonegap" : false,
    "controller" : "RestServiceVirtual"
  },
  "sendVehicleResponseVariable" : {
    "_id" : "wm-sendVehicleResponseVariable-wm.ServiceVariable-1484699738384",
    "name" : "sendVehicleResponseVariable",
    "owner" : "Page",
    "category" : "wm.ServiceVariable",
    "dataBinding" : [ {
      "target" : "zipcode",
      "value" : "bind:Variables.MonzaDealersData.firstRecord.zipcode",
      "type" : "string"
    }, {
      "target" : "user",
      "value" : "bind:pageParams.userid",
      "type" : "string"
    }, {
      "target" : "dealer",
      "value" : "bind:Variables.dealerId.dataSet.dataValue",
      "type" : "string"
    } ],
    "type" : "SendVehicleResponse.RootResponse",
    "service" : "SendVehicleResponse",
    "operation" : "invoke",
    "operationId" : "SendVehicleResponse_RestServiceVirtualController-invoke",
    "operationType" : "post",
    "serviceType" : "RestService",
    "dataSet" : [ ],
    "isList" : false,
    "maxResults" : 20,
    "designMaxResults" : 10,
    "onSuccess" : "Widgets.alertdialog1.open()",
    "onError" : "Widgets.alertdialog2.open()",
    "startUpdate" : false,
    "autoUpdate" : false,
    "inFlightBehavior" : "executeLast",
    "transformationRequired" : false,
    "saveInPhonegap" : false,
    "controller" : "RestServiceVirtual"
  }
}