{
  "authType" : "NONE",
  "contentType" : "text/xml",
  "endpointAddress" : "http://devws.autolink.services/servicesMonza/dealer/740927/inventory/match",
  "method" : "GET",
  "requestBody" : "",
  "headers" : { },
  "queryParams" : {
    "requestid" : "f761d1f8-4459-45a6-82ce-7c9762d8df9b"
  },
  "sampleHttpResponseDetails" : {
    "responseBody" : "[{\"dealerdiscount\":500,\"fueltype\":\"Gasoline Fuel\",\"year\":2016,\"dealerid\":\"740927\",\"citympg\":20,\"saleprice\":28995,\"modelno\":\"KLJM74\",\"pricestate\":\"Released\",\"body\":\"Sport Utility\",\"type\":\"New\",\"tradeindiscount\":0,\"dateinstock\":\"2016-02-09 00:00:00.000\",\"transmission\":\"Automatic\",\"trim\":\"Latitude\",\"localdiscount\":0,\"options\":[\"BILLET SILVER METALLIC CLEARCOAT\",\"COMFORT/CONVENIENCE GROUP  -inc: Premium Air Filter  Power Liftgate  Passive Entry/Keyless Go  Rear View Auto Dim Mirror w/Microphone  Universal Garage Door Opener  Air Conditioning ATC w/Dual Zone Control  Remote Start System  Cargo Net  Remote Proximity Keyless Entry  Humidity Sensor  Power 8-Way Driver Seat  Power 4-Way Driver Lumbar Adjust  Security Alarm\",\"ENGINE: 3.2L V6 24V VVT W/ESS  -inc: Pentastar  Stop-Start Multiple VSM System  3.25 Axle Ratio  700 Amp Maintenance Free Battery  Dual Bright Exhaust Tips\",\"QUICK ORDER PACKAGE 26J  -inc: Engine: 3.2L V6 24V VVT w/ESS  Transmission: 9-Speed 948TE Automatic 1 Speed PTU\",\"RADIO: UCONNECT 8.4  -inc: Nav Capable! See Dealer For Details  GPS Antenna Input  6 Month Trial (Registration Required)  Uconnect Access  8.4 Touchscreen Display  Remote USB Port\",\"TRAILER TOW GROUP  -inc: 7 & 4 Pin Wiring Harness  Trailer Tow Wiring Harness  Class III Receiver Hitch  Full Size Spare Tire\",\"TRANSMISSION: 9-SPEED 948TE AUTOMATIC 1 SPEED PTU  (STD)\",\"Four Wheel Drive\",\"Power Steering\",\"ABS\",\"4-Wheel Disc Brakes\",\"Brake Assist\",\"Aluminum Wheels\",\"Tires - Front All-Season\",\"Tires - Rear All-Season\",\"Temporary Spare Tire\",\"Power Mirror(s)\",\"Rear Defrost\",\"Privacy Glass\",\"Variable Speed Intermittent Wipers\",\"Rear Spoiler\",\"Power Door Locks\",\"Daytime Running Lights\",\"Automatic Headlights\",\"Fog Lamps\",\"AM/FM Stereo\",\"MP3 Player\",\"Bluetooth Connection\",\"Auxiliary Audio Input\",\"Steering Wheel Audio Controls\",\"Pass-Through Rear Seat\",\"Rear Bench Seat\",\"Adjustable Steering Wheel\",\"Trip Computer\",\"Power Windows\",\"Leather Steering Wheel\",\"Keyless Entry\",\"Cruise Control\",\"A/C\",\"Woodgrain Interior Trim\",\"Cloth Seats\",\"Bucket Seats\",\"Driver Vanity Mirror\",\"Passenger Vanity Mirror\",\"Driver Illuminated Vanity Mirror\",\"Passenger Illuminated Visor Mirror\",\"Floor Mats\",\"Engine Immobilizer\",\"Stability Control\",\"Traction Control\",\"Front Side Air Bag\",\"Tire Pressure Monitor\",\"Driver Air Bag\",\"Passenger Air Bag\",\"Front Head Air Bag\",\"Rear Head Air Bag\",\"Passenger Air Bag Sensor\",\"Rear Side Air Bag\",\"Knee Air Bag\",\"Child Safety Locks\",\"Back-Up Camera\"],\"model\":\"Cherokee\",\"vin\":\"1C4PJMCSXGW255147\",\"state\":0,\"stock\":\"261069\",\"locked\":0,\"enginedisplacement\":\"3.2 L\",\"intcolorhex\":\"\",\"netprice\":24995,\"created\":\"2016-09-28 17:31:02.401\",\"internetprice\":24995,\"drivetrain\":\"4WD\",\"doors\":4,\"expiresin\":48,\"transmissionspeed\":9,\"categorizedoptions\":null,\"intcolor\":\"A5X9\",\"sellingprice\":28995,\"dealerzipcode\":null,\"extcolor\":\"Billet Silver Metallic Clearcoat\",\"expiration\":\"2016-10-19 22:16:04.390\",\"modifiedby\":\"4uLeYYh2z6Ce882MfsB6g2\",\"updated\":\"2016-09-28 17:31:02.401\",\"consumercash\":4000,\"intcolorcode\":\"\",\"description\":null,\"imagelist\":[\"https://content.homenetiol.com/2001413/2104010/640x480/836a7a42f0794b5da9cf3311504e6fbe.jpg\",\"https://content.homenetiol.com/2001413/2104010/640x480/d5608f39a9bb41e88f343d66b7f756c1.jpg\",\"https://content.homenetiol.com/2001413/2104010/640x480/da3a780d9d2c49bfa9871914c9c01204.jpg\",\"https://content.homenetiol.com/2001413/2104010/640x480/5df55d0ebb2244e3b627260f4c0ae054.jpg\",\"https://content.homenetiol.com/2001413/2104010/640x480/5b32ce68c00b45069fb98b44700cb23b.jpg\",\"https://content.homenetiol.com/2001413/2104010/640x480/4ffc18a502d648bfabb093b21f5c2dbf.jpg\",\"https://content.homenetiol.com/2001413/2104010/640x480/a3b3164439cb43e2b52ecefb5ca947ab.jpg\",\"https://content.homenetiol.com/2001413/2104010/640x480/1a2a955379df486681a428ab4a182c25.jpg\",\"https://content.homenetiol.com/2001413/2104010/640x480/a14d1e50f4234140b33374896b5c7c2b.jpg\",\"https://content.homenetiol.com/2001413/2104010/640x480/8afd1b99b23f42e9a4bf511340f47fcf.jpg\",\"https://content.homenetiol.com/2001413/2104010/640x480/2ad3ba2c101540b1b9cd6be50e6c3551.jpg\",\"https://content.homenetiol.com/2001413/2104010/640x480/0b9666778cb24f68ac540662b3fcc086.jpg\"],\"providerdealerid\":\"42344\",\"pkg\":null,\"valid\":\"2016-11-01 00:00:00.000\",\"provider\":\"Homenet\",\"extcolorhex\":\"828688\",\"msrp\":33175,\"dailyagediscount\":0,\"make\":\"Jeep\",\"highwaympg\":28,\"extcolorcode\":\"PSC\",\"uquoteprice\":28995,\"miscprice2\":31992,\"tradein\":0,\"miscprice1\":4000,\"miscprice3\":24995,\"passengercapacity\":5,\"financediscount\":0,\"styledescription\":\"4WD 4dr Latitude\",\"location\":0,\"enginecylinders\":6,\"invoice\":32220,\"factorycodes\":[\"26J\",\"EHK\",\"DFH\",\"PSC\",\"APA\",\"RA3\",\"NAS\",\"AHT\",\"AFB\",\"YGS\",\"5N8\",\"4EX\",\"*A5\",\"-X9\"],\"finance\":0}]",
    "convertedResponse" : null,
    "statusCode" : 200,
    "headers" : {
      "Date" : [ "Mon, 17 Oct 2016 22:16:05 GMT" ],
      "Content-Length" : [ "4712" ],
      "Connection" : [ "keep-alive" ],
      "Content-Type" : [ "application/json" ],
      "Server" : [ "Apache TomEE" ]
    }
  },
  "redirectEnabled" : true,
  "proxy" : null
}