{
  "endpointAddress" : "http://devws.autolink.services/servicesMonza/facebook/dealer/740927/model/send",
  "method" : "POST",
  "requestBody" : "",
  "headers" : { },
  "queryParams" : { },
  "sampleHttpResponseDetails" : {
    "responseBody" : "{\"attachment\":{\"payload\":{\"elements\":[{\"buttons\":[{\"payload\":\"INV_740927_Jeep_Wrangler\",\"type\":\"postback\",\"title\":\"Select\"}],\"image_url\":\"http://media.chromedata.com/autoBuilderData/stockPhotos/22840.jpg\",\"subtitle\":\"2 available.\",\"title\":\"Wrangler\"}],\"template_type\":\"generic\"},\"type\":\"template\"},\"quick_replies\":[{\"content_type\":\"text\",\"payload\":\"INV_740927_Jeep\",\"title\":\"More Jeep Models\"}]}",
    "convertedResponse" : null,
    "statusCode" : 200,
    "headers" : {
      "Content-Type" : [ "application/json" ],
      "Date" : [ "Fri, 05 May 2017 17:57:35 GMT" ],
      "Server" : [ "Apache TomEE" ],
      "Content-Length" : [ "395" ],
      "Connection" : [ "keep-alive" ]
    }
  },
  "redirectEnabled" : true,
  "proxy" : null,
  "authType" : "NONE",
  "contentType" : "multipart/form-data",
  "multiParamInfoList" : [ {
    "type" : "STRING",
    "name" : "model",
    "list" : false,
    "testValue" : "Wrangler",
    "contentType" : null
  }, {
    "type" : "STRING",
    "name" : "make",
    "list" : false,
    "testValue" : "Jeep",
    "contentType" : null
  }, {
    "type" : "STRING",
    "name" : "user",
    "list" : false,
    "testValue" : "7A2DB108-B1C1-420B-8358-21DE82DC5D34",
    "contentType" : null
  } ]
}