{
  "authType" : "NONE",
  "contentType" : "text/xml",
  "endpointAddress" : "http://devws.autolink.services/servicesMonza/dealer/851425/inventory/search",
  "method" : "GET",
  "requestBody" : "",
  "headers" : { },
  "queryParams" : {
    "model" : "Mustang",
    "price" : "true",
    "trim" : "GT",
    "make" : "Ford"
  },
  "sampleHttpResponseDetails" : {
    "responseBody" : "{\"inventory\":[{\"dealerdiscount\":500,\"fueltype\":\"Gasoline Fuel\",\"year\":2017,\"dealerid\":\"851425\",\"citympg\":16,\"saleprice\":34745,\"modelno\":\"P8C\",\"pricestate\":\"Released\",\"body\":\"2dr Car\",\"type\":\"New\",\"daysinstock\":193,\"tradeindiscount\":0,\"dateinstock\":\"2016-07-08 00:00:00.000\",\"transmission\":\"Automatic\",\"trim\":\"GT\",\"balance\":36335,\"localdiscount\":0,\"options\":[\"ENGINE: 5.0L TI-VCT V8  (STD)\",\"EQUIPMENT GROUP 300A\",\"FRONT LICENSE PLATE BRACKET  -inc: Standard in states where required by law\",\"SHADOW BLACK\",\"TRANSMISSION: 6-SPEED SELECTSHIFT AUTOMATIC  -inc: steering wheel paddle shifters  Remote Start System  Leather-Wrapped Shift Knob  3.15 Limited Slip Axle Ratio\",\"Rear Wheel Drive\",\"Power Steering\",\"ABS\",\"4-Wheel Disc Brakes\",\"Brake Assist\",\"Locking/Limited Slip Differential\",\"Aluminum Wheels\",\"Tires - Front Performance\",\"Tires - Rear Performance\",\"Power Mirror(s)\",\"Rear Defrost\",\"Intermittent Wipers\",\"Variable Speed Intermittent Wipers\",\"Rear Spoiler\",\"HID headlights\",\"Automatic Headlights\",\"Fog Lamps\",\"AM/FM Stereo\",\"CD Player\",\"MP3 Player\",\"Auxiliary Audio Input\",\"Steering Wheel Audio Controls\",\"Bluetooth Connection\",\"Telematics\",\"Smart Device Integration\",\"Pass-Through Rear Seat\",\"Rear Bench Seat\",\"Adjustable Steering Wheel\",\"Trip Computer\",\"Leather Steering Wheel\",\"Keyless Entry\",\"Power Door Locks\",\"Keyless Start\",\"Cruise Control\",\"A/C\",\"Power Driver Seat\",\"Power Passenger Seat\",\"Cloth Seats\",\"Bucket Seats\",\"Driver Adjustable Lumbar\",\"Auto-Dimming Rearview Mirror\",\"Driver Vanity Mirror\",\"Passenger Vanity Mirror\",\"Driver Illuminated Vanity Mirror\",\"Passenger Illuminated Visor Mirror\",\"Floor Mats\",\"Power Windows\",\"Security System\",\"Engine Immobilizer\",\"Traction Control\",\"Stability Control\",\"Front Side Air Bag\",\"Tire Pressure Monitor\",\"Driver Air Bag\",\"Passenger Air Bag\",\"Front Head Air Bag\",\"Rear Head Air Bag\",\"Passenger Air Bag Sensor\",\"Knee Air Bag\",\"Back-Up Camera\"],\"model\":\"Mustang\",\"vin\":\"1FA6P8CF2H5203612\",\"state\":0,\"stock\":\"170038\",\"locked\":0,\"enginedisplacement\":\"5.0 L\",\"intcolorhex\":\"\",\"created\":\"2016-11-23 19:18:39.960\",\"internetprice\":35245,\"drivetrain\":\"RWD\",\"doors\":2,\"zipcode\":\"91791\",\"expiresin\":48,\"transmissionspeed\":6,\"categorizedoptions\":null,\"intcolor\":\"Ebony\",\"sellingprice\":35245,\"dealerzipcode\":null,\"extcolor\":\"Shadow Black\",\"expiration\":\"2016-12-31 00:00:00.000\",\"modifiedby\":\"4uLeYYh2z6Ce882MfsB6g2\",\"updated\":\"2016-11-23 19:18:39.960\",\"intcolorcode\":\"21\",\"description\":null,\"imagelist\":[\"https://content.homenetiol.com/2001413/2104010/640x480/47c05a16b6654ed6903f54e23045e33d.jpg\",\"https://content.homenetiol.com/2001413/2104010/640x480/5db64d7919fe4905ab27a1393b8eb041.jpg\",\"https://content.homenetiol.com/2001413/2104010/640x480/5e04c7cf45bf4432a20825e013cf4c06.jpg\",\"https://content.homenetiol.com/2001413/2104010/640x480/003d18716a5849789b9513878eff7db8.jpg\",\"https://content.homenetiol.com/2001413/2104010/640x480/14b82cb7f0af4792b5bad578b584103e.jpg\"],\"providerdealerid\":\"1019343\",\"pkg\":null,\"valid\":\"2016-12-31 00:00:00.000\",\"dealername\":\"Ford Of West Covina\",\"expired\":true,\"provider\":\"Homenet\",\"interest\":576.38,\"extcolorhex\":\"0A0A0C\",\"msrp\":36335,\"dailyagediscount\":0,\"make\":\"Ford\",\"highwaympg\":25,\"extcolorcode\":\"G1\",\"uquoteprice\":34745,\"miscprice2\":5000,\"tradein\":0,\"miscprice1\":41335,\"miscprice3\":36335,\"passengercapacity\":4,\"financediscount\":0,\"styledescription\":\"GT Fastback\",\"location\":0,\"enginecylinders\":8,\"invoice\":34447,\"factorycodes\":[\"G1\",\"3\",\"1\",\"300A\",\"99F\",\"443\",\"ZZ1\",\"153\",\"425\",\"45Y\",\"ZZ2\",\"ZZ3\",\"D1\"],\"finance\":0},{\"dealerdiscount\":500,\"fueltype\":\"Gasoline Fuel\",\"year\":2017,\"dealerid\":\"851425\",\"citympg\":15,\"saleprice\":32745,\"modelno\":\"P8C\",\"pricestate\":\"Released\",\"body\":\"2dr Car\",\"type\":\"New\",\"daysinstock\":189,\"tradeindiscount\":0,\"dateinstock\":\"2016-07-12 00:00:00.000\",\"transmission\":\"Manual\",\"trim\":\"GT\",\"balance\":35140,\"localdiscount\":0,\"options\":[\"ENGINE: 5.0L TI-VCT V8  (STD)\",\"EQUIPMENT GROUP 300A\",\"FRONT LICENSE PLATE BRACKET  -inc: Standard in states where required by law\",\"LIGHTNING BLUE METALLIC\",\"TRANSMISSION: 6-SPEED MANUAL  -inc: reverse lockout pull ring (STD)\",\"Rear Wheel Drive\",\"Power Steering\",\"ABS\",\"4-Wheel Disc Brakes\",\"Brake Assist\",\"Locking/Limited Slip Differential\",\"Aluminum Wheels\",\"Tires - Front Performance\",\"Tires - Rear Performance\",\"Power Mirror(s)\",\"Rear Defrost\",\"Intermittent Wipers\",\"Variable Speed Intermittent Wipers\",\"Rear Spoiler\",\"HID headlights\",\"Automatic Headlights\",\"Fog Lamps\",\"AM/FM Stereo\",\"CD Player\",\"MP3 Player\",\"Auxiliary Audio Input\",\"Steering Wheel Audio Controls\",\"Bluetooth Connection\",\"Telematics\",\"Smart Device Integration\",\"Pass-Through Rear Seat\",\"Rear Bench Seat\",\"Adjustable Steering Wheel\",\"Trip Computer\",\"Leather Steering Wheel\",\"Keyless Entry\",\"Power Door Locks\",\"Keyless Start\",\"Cruise Control\",\"A/C\",\"Power Driver Seat\",\"Power Passenger Seat\",\"Cloth Seats\",\"Bucket Seats\",\"Driver Adjustable Lumbar\",\"Auto-Dimming Rearview Mirror\",\"Driver Vanity Mirror\",\"Passenger Vanity Mirror\",\"Driver Illuminated Vanity Mirror\",\"Passenger Illuminated Visor Mirror\",\"Floor Mats\",\"Power Windows\",\"Security System\",\"Engine Immobilizer\",\"Traction Control\",\"Stability Control\",\"Front Side Air Bag\",\"Tire Pressure Monitor\",\"Driver Air Bag\",\"Passenger Air Bag\",\"Front Head Air Bag\",\"Rear Head Air Bag\",\"Passenger Air Bag Sensor\",\"Knee Air Bag\",\"Back-Up Camera\"],\"model\":\"Mustang\",\"vin\":\"1FA6P8CF0H5203611\",\"state\":0,\"stock\":\"170054\",\"locked\":0,\"enginedisplacement\":\"5.0 L\",\"intcolorhex\":\"\",\"created\":\"2016-11-23 19:18:39.959\",\"internetprice\":33245,\"drivetrain\":\"RWD\",\"doors\":2,\"zipcode\":\"91791\",\"expiresin\":48,\"transmissionspeed\":6,\"categorizedoptions\":null,\"intcolor\":\"Ebony\",\"sellingprice\":33245,\"dealerzipcode\":null,\"extcolor\":\"Lightning Blue Metallic\",\"expiration\":\"2016-12-31 00:00:00.000\",\"modifiedby\":\"4uLeYYh2z6Ce882MfsB6g2\",\"updated\":\"2016-11-23 19:18:39.959\",\"intcolorcode\":\"21\",\"description\":null,\"imagelist\":[\"https://content.homenetiol.com/2001413/2104010/640x480/stock_images/7/cc_2017FOC050002_640/cc_2017FOC050002_640_N6.jpg\",\"https://content.homenetiol.com/2001413/2104010/640x480/stock_images/5/2017FOC050002_640/2017FOC050002_640_01.jpg\",\"https://content.homenetiol.com/2001413/2104010/640x480/stock_images/5/2017FOC050002_640/2017FOC050002_640_02.jpg\",\"https://content.homenetiol.com/2001413/2104010/640x480/stock_images/5/2017FOC050002_640/2017FOC050002_640_03.jpg\",\"https://content.homenetiol.com/2001413/2104010/640x480/stock_images/5/2017FOC050002_640/2017FOC050002_640_12.jpg\"],\"providerdealerid\":\"1019343\",\"pkg\":null,\"valid\":\"2016-12-31 00:00:00.000\",\"dealername\":\"Ford Of West Covina\",\"expired\":true,\"provider\":\"Homenet\",\"interest\":545.87,\"extcolorhex\":\"163153\",\"msrp\":35140,\"dailyagediscount\":0,\"make\":\"Ford\",\"highwaympg\":25,\"extcolorcode\":\"N6\",\"uquoteprice\":32745,\"miscprice2\":5000,\"tradein\":0,\"miscprice1\":40140,\"miscprice3\":35140,\"passengercapacity\":4,\"financediscount\":0,\"styledescription\":\"GT Fastback\",\"location\":0,\"enginecylinders\":8,\"invoice\":33312,\"factorycodes\":[\"N6\",\"3\",\"1\",\"300A\",\"99F\",\"44X\",\"ZZ1\",\"153\",\"425\",\"ZZ2\",\"ZZ3\",\"D1\"],\"finance\":0},{\"dealerdiscount\":500,\"fueltype\":\"Gasoline Fuel\",\"year\":2017,\"dealerid\":\"851425\",\"citympg\":15,\"saleprice\":34745,\"modelno\":\"P8C\",\"pricestate\":\"Released\",\"body\":\"2dr Car\",\"type\":\"New\",\"daysinstock\":186,\"tradeindiscount\":0,\"dateinstock\":\"2016-07-15 00:00:00.000\",\"transmission\":\"Manual\",\"trim\":\"GT\",\"balance\":38505,\"localdiscount\":0,\"options\":[\"EBONY TAPE STRIPE\",\"ENGINE: 5.0L TI-VCT V8  (STD)\",\"ENHANCED SECURITY PACKAGE  -inc: electronic-locking center console and electronic steering column lock  Active Anti-Theft System  Wheel Locking Kit\",\"EQUIPMENT GROUP 300A\",\"FRONT LICENSE PLATE BRACKET  -inc: Standard in states where required by law\",\"GT PERFORMANCE PACKAGE  -inc: Brembo 6-piston front brake calipers  K-brace  strut-tower brace  unique chassis tuning  unique electronic power assisted steering  unique anti-lock brakes and upsized rear sway bar  Engine Turn Aluminum Instrument Panel  Spoiler Delete  3.73 TORSEN Limited-Slip Rear Axle Ratio  HD Front Springs  Larger Radiator  Larger Brake Rotors  Unique Stability Control  Gauge Pack (Oil Pressure and Vacuum)\",\"OVER-THE-TOP RACING STRIPE\",\"RACE RED\",\"TRANSMISSION: 6-SPEED MANUAL  -inc: reverse lockout pull ring (STD)\",\"Rear Wheel Drive\",\"Power Steering\",\"ABS\",\"4-Wheel Disc Brakes\",\"Brake Assist\",\"Locking/Limited Slip Differential\",\"Aluminum Wheels\",\"Tires - Front Performance\",\"Tires - Rear Performance\",\"Power Mirror(s)\",\"Rear Defrost\",\"Intermittent Wipers\",\"Variable Speed Intermittent Wipers\",\"Rear Spoiler\",\"HID headlights\",\"Automatic Headlights\",\"Fog Lamps\",\"AM/FM Stereo\",\"CD Player\",\"MP3 Player\",\"Auxiliary Audio Input\",\"Steering Wheel Audio Controls\",\"Bluetooth Connection\",\"Telematics\",\"Smart Device Integration\",\"Pass-Through Rear Seat\",\"Rear Bench Seat\",\"Adjustable Steering Wheel\",\"Trip Computer\",\"Leather Steering Wheel\",\"Keyless Entry\",\"Power Door Locks\",\"Keyless Start\",\"Cruise Control\",\"A/C\",\"Power Driver Seat\",\"Power Passenger Seat\",\"Cloth Seats\",\"Bucket Seats\",\"Driver Adjustable Lumbar\",\"Auto-Dimming Rearview Mirror\",\"Driver Vanity Mirror\",\"Passenger Vanity Mirror\",\"Driver Illuminated Vanity Mirror\",\"Passenger Illuminated Visor Mirror\",\"Floor Mats\",\"Power Windows\",\"Security System\",\"Engine Immobilizer\",\"Traction Control\",\"Stability Control\",\"Front Side Air Bag\",\"Tire Pressure Monitor\",\"Driver Air Bag\",\"Passenger Air Bag\",\"Front Head Air Bag\",\"Rear Head Air Bag\",\"Passenger Air Bag Sensor\",\"Knee Air Bag\",\"Back-Up Camera\"],\"model\":\"Mustang\",\"vin\":\"1FA6P8CF3H5210519\",\"state\":0,\"stock\":\"170068\",\"locked\":0,\"enginedisplacement\":\"5.0 L\",\"intcolorhex\":\"\",\"created\":\"2016-11-23 19:18:39.961\",\"internetprice\":35245,\"drivetrain\":\"RWD\",\"doors\":2,\"zipcode\":\"91791\",\"expiresin\":48,\"transmissionspeed\":6,\"categorizedoptions\":null,\"intcolor\":\"Ebony\",\"sellingprice\":35245,\"dealerzipcode\":null,\"extcolor\":\"Race Red\",\"expiration\":\"2016-12-31 00:00:00.000\",\"modifiedby\":\"4uLeYYh2z6Ce882MfsB6g2\",\"updated\":\"2016-11-23 19:18:39.961\",\"intcolorcode\":\"21\",\"description\":null,\"imagelist\":[\"https://content.homenetiol.com/2001413/2104010/640x480/5f5489ec74dd4efa9cda3213c5b7828e.jpg\",\"https://content.homenetiol.com/2001413/2104010/640x480/7324ccc8759849d6905093c1b7fec46b.jpg\",\"https://content.homenetiol.com/2001413/2104010/640x480/90d3802cb8b34cccbf426678f124dc58.jpg\",\"https://content.homenetiol.com/2001413/2104010/640x480/3d503d8ae57c439cb9a9a36129742cd9.jpg\",\"https://content.homenetiol.com/2001413/2104010/640x480/36cb4273d9f7437e88541ddd4dd1e208.jpg\"],\"providerdealerid\":\"1019343\",\"pkg\":null,\"valid\":\"2016-12-31 00:00:00.000\",\"dealername\":\"Ford Of West Covina\",\"expired\":true,\"provider\":\"Homenet\",\"interest\":588.65,\"extcolorhex\":\"AC2035\",\"msrp\":38505,\"dailyagediscount\":0,\"make\":\"Ford\",\"highwaympg\":25,\"extcolorcode\":\"PQ\",\"uquoteprice\":34745,\"miscprice2\":5000,\"tradein\":0,\"miscprice1\":43505,\"miscprice3\":38505,\"passengercapacity\":4,\"financediscount\":0,\"styledescription\":\"GT Fastback\",\"location\":0,\"enginecylinders\":8,\"invoice\":36508,\"factorycodes\":[\"PQ\",\"3\",\"1\",\"300A\",\"99F\",\"44X\",\"ZZ1\",\"153\",\"425\",\"43S\",\"47A\",\"67G\",\"85X\",\"ZZ2\",\"ZZ3\",\"D1\"],\"finance\":0},{\"dealerdiscount\":500,\"fueltype\":\"Gasoline Fuel\",\"year\":2017,\"dealerid\":\"851425\",\"citympg\":15,\"saleprice\":40572,\"modelno\":\"P8C\",\"pricestate\":\"Released\",\"body\":\"2dr Car\",\"type\":\"New\",\"daysinstock\":162,\"tradeindiscount\":0,\"dateinstock\":\"2016-08-08 00:00:00.000\",\"transmission\":\"Manual\",\"trim\":\"GT\",\"balance\":0,\"localdiscount\":0,\"options\":[\"Rear Wheel Drive\",\"Power Steering\",\"ABS\",\"4-Wheel Disc Brakes\",\"Brake Assist\",\"Locking/Limited Slip Differential\",\"Aluminum Wheels\",\"Tires - Front Performance\",\"Tires - Rear Performance\",\"Power Mirror(s)\",\"Rear Defrost\",\"Intermittent Wipers\",\"Variable Speed Intermittent Wipers\",\"Rear Spoiler\",\"HID headlights\",\"Automatic Headlights\",\"Fog Lamps\",\"AM/FM Stereo\",\"CD Player\",\"MP3 Player\",\"Auxiliary Audio Input\",\"Steering Wheel Audio Controls\",\"Bluetooth Connection\",\"Telematics\",\"Smart Device Integration\",\"Pass-Through Rear Seat\",\"Rear Bench Seat\",\"Adjustable Steering Wheel\",\"Trip Computer\",\"Leather Steering Wheel\",\"Keyless Entry\",\"Power Door Locks\",\"Keyless Start\",\"Cruise Control\",\"A/C\",\"Power Driver Seat\",\"Power Passenger Seat\",\"Cloth Seats\",\"Bucket Seats\",\"Driver Adjustable Lumbar\",\"Auto-Dimming Rearview Mirror\",\"Driver Vanity Mirror\",\"Passenger Vanity Mirror\",\"Driver Illuminated Vanity Mirror\",\"Passenger Illuminated Visor Mirror\",\"Floor Mats\",\"Power Windows\",\"Security System\",\"Engine Immobilizer\",\"Traction Control\",\"Stability Control\",\"Front Side Air Bag\",\"Tire Pressure Monitor\",\"Driver Air Bag\",\"Passenger Air Bag\",\"Front Head Air Bag\",\"Rear Head Air Bag\",\"Passenger Air Bag Sensor\",\"Knee Air Bag\",\"Back-Up Camera\"],\"model\":\"Mustang\",\"vin\":\"1FA6P8CF8H5211035\",\"state\":0,\"stock\":\"170087\",\"locked\":0,\"enginedisplacement\":\"5.0 L\",\"intcolorhex\":\"\",\"created\":\"2016-11-23 19:18:39.963\",\"internetprice\":0,\"drivetrain\":\"RWD\",\"doors\":2,\"zipcode\":\"91791\",\"expiresin\":48,\"transmissionspeed\":6,\"categorizedoptions\":null,\"intcolor\":\"Ebony\",\"sellingprice\":0,\"dealerzipcode\":null,\"extcolor\":\"Shadow Black\",\"expiration\":\"2016-09-12 00:00:00.000\",\"modifiedby\":\"5XeZ3jKD9rqc8ynknLA4mU\",\"updated\":\"2016-11-23 19:18:39.963\",\"intcolorcode\":\"21\",\"description\":null,\"imagelist\":[\"https://content.homenetiol.com/2001413/2104010/640x480/stock_images/7/cc_2017FOC050002_640/cc_2017FOC050002_640_G1.jpg\",\"https://content.homenetiol.com/2001413/2104010/640x480/stock_images/5/2017FOC050002_640/2017FOC050002_640_01.jpg\",\"https://content.homenetiol.com/2001413/2104010/640x480/stock_images/5/2017FOC050002_640/2017FOC050002_640_02.jpg\",\"https://content.homenetiol.com/2001413/2104010/640x480/stock_images/5/2017FOC050002_640/2017FOC050002_640_03.jpg\",\"https://content.homenetiol.com/2001413/2104010/640x480/stock_images/5/2017FOC050002_640/2017FOC050002_640_12.jpg\"],\"providerdealerid\":\"1019343\",\"pkg\":null,\"valid\":\"2016-09-12 00:00:00.000\",\"dealername\":\"Ford Of West Covina\",\"expired\":true,\"provider\":\"Homenet\",\"interest\":0,\"extcolorhex\":\"0A0A0C\",\"msrp\":0,\"dailyagediscount\":0,\"make\":\"Ford\",\"highwaympg\":25,\"extcolorcode\":\"G1\",\"uquoteprice\":40572,\"miscprice2\":5000,\"tradein\":0,\"miscprice1\":47820,\"miscprice3\":0,\"passengercapacity\":4,\"financediscount\":0,\"styledescription\":\"GT Fastback\",\"location\":0,\"enginecylinders\":8,\"invoice\":40572,\"factorycodes\":[\"E1\"],\"finance\":0},{\"dealerdiscount\":500,\"fueltype\":\"Gasoline Fuel\",\"year\":2017,\"dealerid\":\"851425\",\"citympg\":16,\"saleprice\":32937,\"modelno\":\"P8C\",\"pricestate\":\"Released\",\"body\":\"2dr Car\",\"type\":\"New\",\"daysinstock\":132,\"tradeindiscount\":0,\"dateinstock\":\"2016-09-07 00:00:00.000\",\"transmission\":\"Automatic\",\"trim\":\"GT\",\"balance\":0,\"localdiscount\":0,\"options\":[\"ENGINE: 5.0L TI-VCT V8  (STD)\",\"EQUIPMENT GROUP 300A\",\"FRONT LICENSE PLATE BRACKET  -inc: Standard in states where required by law\",\"MAGNETIC METALLIC\",\"TRANSMISSION: 6-SPEED SELECTSHIFT AUTOMATIC  -inc: steering wheel paddle shifters  Remote Start System  Leather-Wrapped Shift Knob  3.15 Limited Slip Axle Ratio\",\"Rear Wheel Drive\",\"Power Steering\",\"ABS\",\"4-Wheel Disc Brakes\",\"Brake Assist\",\"Locking/Limited Slip Differential\",\"Aluminum Wheels\",\"Tires - Front Performance\",\"Tires - Rear Performance\",\"Power Mirror(s)\",\"Rear Defrost\",\"Intermittent Wipers\",\"Variable Speed Intermittent Wipers\",\"Rear Spoiler\",\"HID headlights\",\"Automatic Headlights\",\"Fog Lamps\",\"AM/FM Stereo\",\"CD Player\",\"MP3 Player\",\"Auxiliary Audio Input\",\"Steering Wheel Audio Controls\",\"Bluetooth Connection\",\"Telematics\",\"Smart Device Integration\",\"Pass-Through Rear Seat\",\"Rear Bench Seat\",\"Adjustable Steering Wheel\",\"Trip Computer\",\"Leather Steering Wheel\",\"Keyless Entry\",\"Power Door Locks\",\"Keyless Start\",\"Cruise Control\",\"A/C\",\"Power Driver Seat\",\"Power Passenger Seat\",\"Cloth Seats\",\"Bucket Seats\",\"Driver Adjustable Lumbar\",\"Auto-Dimming Rearview Mirror\",\"Driver Vanity Mirror\",\"Passenger Vanity Mirror\",\"Driver Illuminated Vanity Mirror\",\"Passenger Illuminated Visor Mirror\",\"Floor Mats\",\"Power Windows\",\"Security System\",\"Engine Immobilizer\",\"Traction Control\",\"Stability Control\",\"Front Side Air Bag\",\"Tire Pressure Monitor\",\"Driver Air Bag\",\"Passenger Air Bag\",\"Front Head Air Bag\",\"Rear Head Air Bag\",\"Passenger Air Bag Sensor\",\"Knee Air Bag\",\"Back-Up Camera\"],\"model\":\"Mustang\",\"vin\":\"1FA6P8CF1H5221406\",\"state\":0,\"stock\":\"170119\",\"locked\":0,\"enginedisplacement\":\"5.0 L\",\"intcolorhex\":\"\",\"created\":\"2016-11-23 19:18:39.959\",\"internetprice\":0,\"drivetrain\":\"RWD\",\"doors\":2,\"zipcode\":\"91791\",\"expiresin\":48,\"transmissionspeed\":6,\"categorizedoptions\":null,\"intcolor\":\"Ebony\",\"sellingprice\":0,\"dealerzipcode\":null,\"extcolor\":\"Magnetic Metallic\",\"expiration\":\"2016-09-12 00:00:00.000\",\"modifiedby\":\"5XeZ3jKD9rqc8ynknLA4mU\",\"updated\":\"2016-11-23 19:18:39.959\",\"intcolorcode\":\"21\",\"description\":null,\"imagelist\":[\"https://content.homenetiol.com/2001413/2104010/640x480/stock_images/7/cc_2017FOC050002_640/cc_2017FOC050002_640_J7.jpg\",\"https://content.homenetiol.com/2001413/2104010/640x480/stock_images/5/2017FOC050002_640/2017FOC050002_640_01.jpg\",\"https://content.homenetiol.com/2001413/2104010/640x480/stock_images/5/2017FOC050002_640/2017FOC050002_640_02.jpg\",\"https://content.homenetiol.com/2001413/2104010/640x480/stock_images/5/2017FOC050002_640/2017FOC050002_640_03.jpg\",\"https://content.homenetiol.com/2001413/2104010/640x480/stock_images/5/2017FOC050002_640/2017FOC050002_640_12.jpg\"],\"providerdealerid\":\"1019343\",\"pkg\":null,\"valid\":\"2016-09-12 00:00:00.000\",\"dealername\":\"Ford Of West Covina\",\"expired\":true,\"provider\":\"Homenet\",\"interest\":0,\"extcolorhex\":\"454744\",\"msrp\":0,\"dailyagediscount\":0,\"make\":\"Ford\",\"highwaympg\":25,\"extcolorcode\":\"J7\",\"uquoteprice\":32937,\"miscprice2\":5000,\"tradein\":0,\"miscprice1\":39740,\"miscprice3\":0,\"passengercapacity\":4,\"financediscount\":0,\"styledescription\":\"GT Fastback\",\"location\":0,\"enginecylinders\":8,\"invoice\":32937,\"factorycodes\":[\"J7\",\"1\",\"300A\",\"99F\",\"443\",\"ZZ1\",\"153\",\"425\",\"45Y\",\"ZZ2\",\"ZZ3\",\"D1\"],\"finance\":0},{\"dealerdiscount\":500,\"fueltype\":\"Gasoline Fuel\",\"year\":2017,\"dealerid\":\"851425\",\"citympg\":16,\"saleprice\":null,\"modelno\":\"P8C\",\"pricestate\":null,\"body\":\"2dr Car\",\"type\":\"New\",\"daysinstock\":71,\"tradeindiscount\":null,\"dateinstock\":\"2016-11-07 00:00:00.000\",\"transmission\":\"Automatic\",\"trim\":\"GT\",\"balance\":0,\"localdiscount\":null,\"options\":[\"ENGINE: 5.0L TI-VCT V8  (STD)\",\"EQUIPMENT GROUP 300A\",\"FRONT LICENSE PLATE BRACKET  -inc: Standard in states where required by law\",\"MAGNETIC METALLIC\",\"TRANSMISSION: 6-SPEED SELECTSHIFT AUTOMATIC  -inc: steering wheel paddle shifters  Remote Start System  Leather-Wrapped Shift Knob  3.15 Limited Slip Axle Ratio\",\"Rear Wheel Drive\",\"Power Steering\",\"ABS\",\"4-Wheel Disc Brakes\",\"Brake Assist\",\"Locking/Limited Slip Differential\",\"Aluminum Wheels\",\"Tires - Front Performance\",\"Tires - Rear Performance\",\"Power Mirror(s)\",\"Rear Defrost\",\"Intermittent Wipers\",\"Variable Speed Intermittent Wipers\",\"Rear Spoiler\",\"HID headlights\",\"Automatic Headlights\",\"Fog Lamps\",\"AM/FM Stereo\",\"CD Player\",\"MP3 Player\",\"Auxiliary Audio Input\",\"Steering Wheel Audio Controls\",\"Bluetooth Connection\",\"Telematics\",\"Smart Device Integration\",\"Pass-Through Rear Seat\",\"Rear Bench Seat\",\"Adjustable Steering Wheel\",\"Trip Computer\",\"Leather Steering Wheel\",\"Keyless Entry\",\"Power Door Locks\",\"Keyless Start\",\"Cruise Control\",\"A/C\",\"Power Driver Seat\",\"Power Passenger Seat\",\"Cloth Seats\",\"Bucket Seats\",\"Driver Adjustable Lumbar\",\"Auto-Dimming Rearview Mirror\",\"Driver Vanity Mirror\",\"Passenger Vanity Mirror\",\"Driver Illuminated Vanity Mirror\",\"Passenger Illuminated Visor Mirror\",\"Floor Mats\",\"Power Windows\",\"Security System\",\"Engine Immobilizer\",\"Traction Control\",\"Stability Control\",\"Front Side Air Bag\",\"Tire Pressure Monitor\",\"Driver Air Bag\",\"Passenger Air Bag\",\"Front Head Air Bag\",\"Rear Head Air Bag\",\"Passenger Air Bag Sensor\",\"Knee Air Bag\",\"Back-Up Camera\"],\"model\":\"Mustang\",\"vin\":\"1FA6P8CF5H5250407\",\"state\":0,\"stock\":\"170217\",\"locked\":null,\"enginedisplacement\":\"5.0 L\",\"intcolorhex\":\"\",\"created\":\"2016-11-23 19:18:39.962\",\"internetprice\":0,\"drivetrain\":\"RWD\",\"doors\":2,\"zipcode\":\"91791\",\"expiresin\":null,\"transmissionspeed\":6,\"categorizedoptions\":null,\"intcolor\":\"Ebony\",\"sellingprice\":0,\"dealerzipcode\":null,\"extcolor\":\"Magnetic Metallic\",\"expiration\":null,\"modifiedby\":null,\"updated\":\"2016-11-23 19:18:39.962\",\"intcolorcode\":\"21\",\"description\":null,\"imagelist\":[\"https://content.homenetiol.com/2001413/2104010/640x480/stock_images/7/cc_2017FOC050002_640/cc_2017FOC050002_640_J7.jpg\",\"https://content.homenetiol.com/2001413/2104010/640x480/stock_images/5/2017FOC050002_640/2017FOC050002_640_01.jpg\",\"https://content.homenetiol.com/2001413/2104010/640x480/stock_images/5/2017FOC050002_640/2017FOC050002_640_02.jpg\",\"https://content.homenetiol.com/2001413/2104010/640x480/stock_images/5/2017FOC050002_640/2017FOC050002_640_03.jpg\",\"https://content.homenetiol.com/2001413/2104010/640x480/stock_images/5/2017FOC050002_640/2017FOC050002_640_12.jpg\"],\"providerdealerid\":\"1019343\",\"pkg\":null,\"valid\":null,\"dealername\":\"Ford Of West Covina\",\"expired\":null,\"provider\":\"Homenet\",\"interest\":0,\"extcolorhex\":\"454744\",\"msrp\":0,\"dailyagediscount\":0,\"make\":\"Ford\",\"highwaympg\":25,\"extcolorcode\":\"J7\",\"uquoteprice\":null,\"miscprice2\":5000,\"tradein\":null,\"miscprice1\":40015,\"miscprice3\":0,\"passengercapacity\":4,\"financediscount\":null,\"styledescription\":\"GT Fastback\",\"location\":null,\"enginecylinders\":8,\"invoice\":33194,\"factorycodes\":[\"J7\",\"1\",\"300A\",\"99F\",\"443\",\"ZZ1\",\"153\",\"425\",\"45Y\",\"ZZ2\",\"ZZ3\",\"D1\"],\"finance\":null},{\"dealerdiscount\":500,\"fueltype\":\"Gasoline Fuel\",\"year\":2017,\"dealerid\":\"851425\",\"citympg\":15,\"saleprice\":null,\"modelno\":\"P8C\",\"pricestate\":null,\"body\":\"2dr Car\",\"type\":\"New\",\"daysinstock\":68,\"tradeindiscount\":null,\"dateinstock\":\"2016-11-10 00:00:00.000\",\"transmission\":\"Manual\",\"trim\":\"GT\",\"balance\":0,\"localdiscount\":null,\"options\":[\"ENGINE: 5.0L TI-VCT V8  (STD)\",\"EQUIPMENT GROUP 300A\",\"FRONT LICENSE PLATE BRACKET  -inc: Standard in states where required by law\",\"GRABBER BLUE\",\"TRANSMISSION: 6-SPEED MANUAL  -inc: reverse lockout pull ring (STD)\",\"Rear Wheel Drive\",\"Power Steering\",\"ABS\",\"4-Wheel Disc Brakes\",\"Brake Assist\",\"Locking/Limited Slip Differential\",\"Aluminum Wheels\",\"Tires - Front Performance\",\"Tires - Rear Performance\",\"Power Mirror(s)\",\"Rear Defrost\",\"Intermittent Wipers\",\"Variable Speed Intermittent Wipers\",\"Rear Spoiler\",\"HID headlights\",\"Automatic Headlights\",\"Fog Lamps\",\"AM/FM Stereo\",\"CD Player\",\"MP3 Player\",\"Auxiliary Audio Input\",\"Steering Wheel Audio Controls\",\"Bluetooth Connection\",\"Telematics\",\"Smart Device Integration\",\"Pass-Through Rear Seat\",\"Rear Bench Seat\",\"Adjustable Steering Wheel\",\"Trip Computer\",\"Leather Steering Wheel\",\"Keyless Entry\",\"Power Door Locks\",\"Keyless Start\",\"Cruise Control\",\"A/C\",\"Power Driver Seat\",\"Power Passenger Seat\",\"Cloth Seats\",\"Bucket Seats\",\"Driver Adjustable Lumbar\",\"Auto-Dimming Rearview Mirror\",\"Driver Vanity Mirror\",\"Passenger Vanity Mirror\",\"Driver Illuminated Vanity Mirror\",\"Passenger Illuminated Visor Mirror\",\"Floor Mats\",\"Power Windows\",\"Security System\",\"Engine Immobilizer\",\"Traction Control\",\"Stability Control\",\"Front Side Air Bag\",\"Tire Pressure Monitor\",\"Driver Air Bag\",\"Passenger Air Bag\",\"Front Head Air Bag\",\"Rear Head Air Bag\",\"Passenger Air Bag Sensor\",\"Knee Air Bag\",\"Back-Up Camera\"],\"model\":\"Mustang\",\"vin\":\"1FA6P8CF1H5247570\",\"state\":0,\"stock\":\"170223\",\"locked\":null,\"enginedisplacement\":\"5.0 L\",\"intcolorhex\":\"\",\"created\":\"2016-11-23 19:18:39.959\",\"internetprice\":0,\"drivetrain\":\"RWD\",\"doors\":2,\"zipcode\":\"91791\",\"expiresin\":null,\"transmissionspeed\":6,\"categorizedoptions\":null,\"intcolor\":\"Ebony\",\"sellingprice\":0,\"dealerzipcode\":null,\"extcolor\":\"Grabber Blue\",\"expiration\":null,\"modifiedby\":null,\"updated\":\"2016-11-23 19:18:39.959\",\"intcolorcode\":\"21\",\"description\":null,\"imagelist\":[\"https://content.homenetiol.com/2001413/2104010/640x480/stock_images/7/cc_2017FOC050002_640/cc_2017FOC050002_640_CI.jpg\",\"https://content.homenetiol.com/2001413/2104010/640x480/stock_images/5/2017FOC050002_640/2017FOC050002_640_01.jpg\",\"https://content.homenetiol.com/2001413/2104010/640x480/stock_images/5/2017FOC050002_640/2017FOC050002_640_02.jpg\",\"https://content.homenetiol.com/2001413/2104010/640x480/stock_images/5/2017FOC050002_640/2017FOC050002_640_03.jpg\",\"https://content.homenetiol.com/2001413/2104010/640x480/stock_images/5/2017FOC050002_640/2017FOC050002_640_12.jpg\"],\"providerdealerid\":\"1019343\",\"pkg\":null,\"valid\":null,\"dealername\":\"Ford Of West Covina\",\"expired\":null,\"provider\":\"Homenet\",\"interest\":0,\"extcolorhex\":\"1161A5\",\"msrp\":0,\"dailyagediscount\":0,\"make\":\"Ford\",\"highwaympg\":25,\"extcolorcode\":\"CI\",\"uquoteprice\":null,\"miscprice2\":5000,\"tradein\":null,\"miscprice1\":40415,\"miscprice3\":0,\"passengercapacity\":4,\"financediscount\":null,\"styledescription\":\"GT Fastback\",\"location\":null,\"enginecylinders\":8,\"invoice\":33574,\"factorycodes\":[\"CI\",\"3\",\"1\",\"300A\",\"99F\",\"44X\",\"ZZ1\",\"153\",\"425\",\"ZZ2\",\"ZZ3\",\"D1\"],\"finance\":null},{\"dealerdiscount\":500,\"fueltype\":\"Gasoline Fuel\",\"year\":2017,\"dealerid\":\"851425\",\"citympg\":15,\"saleprice\":null,\"modelno\":\"P8C\",\"pricestate\":null,\"body\":\"2dr Car\",\"type\":\"New\",\"daysinstock\":68,\"tradeindiscount\":null,\"dateinstock\":\"2016-11-10 00:00:00.000\",\"transmission\":\"Manual\",\"trim\":\"GT\",\"balance\":0,\"localdiscount\":null,\"options\":[\"ENGINE: 5.0L TI-VCT V8  (STD)\",\"EQUIPMENT GROUP 300A\",\"FRONT LICENSE PLATE BRACKET  -inc: Standard in states where required by law\",\"SHADOW BLACK\",\"TRANSMISSION: 6-SPEED MANUAL  -inc: reverse lockout pull ring (STD)\",\"Rear Wheel Drive\",\"Power Steering\",\"ABS\",\"4-Wheel Disc Brakes\",\"Brake Assist\",\"Locking/Limited Slip Differential\",\"Aluminum Wheels\",\"Tires - Front Performance\",\"Tires - Rear Performance\",\"Power Mirror(s)\",\"Rear Defrost\",\"Intermittent Wipers\",\"Variable Speed Intermittent Wipers\",\"Rear Spoiler\",\"HID headlights\",\"Automatic Headlights\",\"Fog Lamps\",\"AM/FM Stereo\",\"CD Player\",\"MP3 Player\",\"Auxiliary Audio Input\",\"Steering Wheel Audio Controls\",\"Bluetooth Connection\",\"Telematics\",\"Smart Device Integration\",\"Pass-Through Rear Seat\",\"Rear Bench Seat\",\"Adjustable Steering Wheel\",\"Trip Computer\",\"Leather Steering Wheel\",\"Keyless Entry\",\"Power Door Locks\",\"Keyless Start\",\"Cruise Control\",\"A/C\",\"Power Driver Seat\",\"Power Passenger Seat\",\"Cloth Seats\",\"Bucket Seats\",\"Driver Adjustable Lumbar\",\"Auto-Dimming Rearview Mirror\",\"Driver Vanity Mirror\",\"Passenger Vanity Mirror\",\"Driver Illuminated Vanity Mirror\",\"Passenger Illuminated Visor Mirror\",\"Floor Mats\",\"Power Windows\",\"Security System\",\"Engine Immobilizer\",\"Traction Control\",\"Stability Control\",\"Front Side Air Bag\",\"Tire Pressure Monitor\",\"Driver Air Bag\",\"Passenger Air Bag\",\"Front Head Air Bag\",\"Rear Head Air Bag\",\"Passenger Air Bag Sensor\",\"Knee Air Bag\",\"Back-Up Camera\"],\"model\":\"Mustang\",\"vin\":\"1FA6P8CF3H5247571\",\"state\":0,\"stock\":\"170225\",\"locked\":null,\"enginedisplacement\":\"5.0 L\",\"intcolorhex\":\"\",\"created\":\"2016-11-23 19:18:39.961\",\"internetprice\":0,\"drivetrain\":\"RWD\",\"doors\":2,\"zipcode\":\"91791\",\"expiresin\":null,\"transmissionspeed\":6,\"categorizedoptions\":null,\"intcolor\":\"Ebony\",\"sellingprice\":0,\"dealerzipcode\":null,\"extcolor\":\"Shadow Black\",\"expiration\":null,\"modifiedby\":null,\"updated\":\"2016-11-23 19:18:39.961\",\"intcolorcode\":\"21\",\"description\":null,\"imagelist\":[\"https://content.homenetiol.com/2001413/2104010/640x480/stock_images/7/cc_2017FOC050002_640/cc_2017FOC050002_640_G1.jpg\",\"https://content.homenetiol.com/2001413/2104010/640x480/stock_images/5/2017FOC050002_640/2017FOC050002_640_01.jpg\",\"https://content.homenetiol.com/2001413/2104010/640x480/stock_images/5/2017FOC050002_640/2017FOC050002_640_02.jpg\",\"https://content.homenetiol.com/2001413/2104010/640x480/stock_images/5/2017FOC050002_640/2017FOC050002_640_03.jpg\",\"https://content.homenetiol.com/2001413/2104010/640x480/stock_images/5/2017FOC050002_640/2017FOC050002_640_12.jpg\"],\"providerdealerid\":\"1019343\",\"pkg\":null,\"valid\":null,\"dealername\":\"Ford Of West Covina\",\"expired\":null,\"provider\":\"Homenet\",\"interest\":0,\"extcolorhex\":\"0A0A0C\",\"msrp\":0,\"dailyagediscount\":0,\"make\":\"Ford\",\"highwaympg\":25,\"extcolorcode\":\"G1\",\"uquoteprice\":null,\"miscprice2\":5000,\"tradein\":null,\"miscprice1\":40415,\"miscprice3\":0,\"passengercapacity\":4,\"financediscount\":null,\"styledescription\":\"GT Fastback\",\"location\":null,\"enginecylinders\":8,\"invoice\":33574,\"factorycodes\":[\"G1\",\"3\",\"1\",\"300A\",\"99F\",\"44X\",\"ZZ1\",\"153\",\"425\",\"ZZ2\",\"ZZ3\",\"D1\"],\"finance\":null},{\"dealerdiscount\":500,\"fueltype\":\"Gasoline Fuel\",\"year\":2017,\"dealerid\":\"851425\",\"citympg\":15,\"saleprice\":null,\"modelno\":\"P8C\",\"pricestate\":null,\"body\":\"2dr Car\",\"type\":\"New\",\"daysinstock\":68,\"tradeindiscount\":null,\"dateinstock\":\"2016-11-10 00:00:00.000\",\"transmission\":\"Manual\",\"trim\":\"GT\",\"balance\":0,\"localdiscount\":null,\"options\":[\"ENGINE: 5.0L TI-VCT V8  (STD)\",\"EQUIPMENT GROUP 300A\",\"FRONT LICENSE PLATE BRACKET  -inc: Standard in states where required by law\",\"INGOT SILVER METALLIC\",\"TRANSMISSION: 6-SPEED MANUAL  -inc: reverse lockout pull ring (STD)\",\"Rear Wheel Drive\",\"Power Steering\",\"ABS\",\"4-Wheel Disc Brakes\",\"Brake Assist\",\"Locking/Limited Slip Differential\",\"Aluminum Wheels\",\"Tires - Front Performance\",\"Tires - Rear Performance\",\"Power Mirror(s)\",\"Rear Defrost\",\"Intermittent Wipers\",\"Variable Speed Intermittent Wipers\",\"Rear Spoiler\",\"HID headlights\",\"Automatic Headlights\",\"Fog Lamps\",\"AM/FM Stereo\",\"CD Player\",\"MP3 Player\",\"Auxiliary Audio Input\",\"Steering Wheel Audio Controls\",\"Bluetooth Connection\",\"Telematics\",\"Smart Device Integration\",\"Pass-Through Rear Seat\",\"Rear Bench Seat\",\"Adjustable Steering Wheel\",\"Trip Computer\",\"Leather Steering Wheel\",\"Keyless Entry\",\"Power Door Locks\",\"Keyless Start\",\"Cruise Control\",\"A/C\",\"Power Driver Seat\",\"Power Passenger Seat\",\"Cloth Seats\",\"Bucket Seats\",\"Driver Adjustable Lumbar\",\"Auto-Dimming Rearview Mirror\",\"Driver Vanity Mirror\",\"Passenger Vanity Mirror\",\"Driver Illuminated Vanity Mirror\",\"Passenger Illuminated Visor Mirror\",\"Floor Mats\",\"Power Windows\",\"Security System\",\"Engine Immobilizer\",\"Traction Control\",\"Stability Control\",\"Front Side Air Bag\",\"Tire Pressure Monitor\",\"Driver Air Bag\",\"Passenger Air Bag\",\"Front Head Air Bag\",\"Rear Head Air Bag\",\"Passenger Air Bag Sensor\",\"Knee Air Bag\",\"Back-Up Camera\"],\"model\":\"Mustang\",\"vin\":\"1FA6P8CF9H5250409\",\"state\":0,\"stock\":\"170226\",\"locked\":null,\"enginedisplacement\":\"5.0 L\",\"intcolorhex\":\"\",\"created\":\"2016-11-23 19:18:39.965\",\"internetprice\":0,\"drivetrain\":\"RWD\",\"doors\":2,\"zipcode\":\"91791\",\"expiresin\":null,\"transmissionspeed\":6,\"categorizedoptions\":null,\"intcolor\":\"Ebony\",\"sellingprice\":0,\"dealerzipcode\":null,\"extcolor\":\"Ingot Silver Metallic\",\"expiration\":null,\"modifiedby\":null,\"updated\":\"2016-11-23 19:18:39.965\",\"intcolorcode\":\"21\",\"description\":null,\"imagelist\":[\"https://content.homenetiol.com/2001413/2104010/640x480/stock_images/7/cc_2017FOC050002_640/cc_2017FOC050002_640_UX.jpg\",\"https://content.homenetiol.com/2001413/2104010/640x480/stock_images/5/2017FOC050002_640/2017FOC050002_640_01.jpg\",\"https://content.homenetiol.com/2001413/2104010/640x480/stock_images/5/2017FOC050002_640/2017FOC050002_640_02.jpg\",\"https://content.homenetiol.com/2001413/2104010/640x480/stock_images/5/2017FOC050002_640/2017FOC050002_640_03.jpg\",\"https://content.homenetiol.com/2001413/2104010/640x480/stock_images/5/2017FOC050002_640/2017FOC050002_640_12.jpg\"],\"providerdealerid\":\"1019343\",\"pkg\":null,\"valid\":null,\"dealername\":\"Ford Of West Covina\",\"expired\":null,\"provider\":\"Homenet\",\"interest\":0,\"extcolorhex\":\"A1A1A1\",\"msrp\":0,\"dailyagediscount\":0,\"make\":\"Ford\",\"highwaympg\":25,\"extcolorcode\":\"UX\",\"uquoteprice\":null,\"miscprice2\":5000,\"tradein\":null,\"miscprice1\":38820,\"miscprice3\":0,\"passengercapacity\":4,\"financediscount\":null,\"styledescription\":\"GT Fastback\",\"location\":null,\"enginecylinders\":8,\"invoice\":32059,\"factorycodes\":[\"UX\",\"1\",\"300A\",\"99F\",\"44X\",\"ZZ1\",\"153\",\"425\",\"ZZ2\",\"ZZ3\",\"D1\"],\"finance\":null},{\"dealerdiscount\":500,\"fueltype\":\"Gasoline Fuel\",\"year\":2017,\"dealerid\":\"851425\",\"citympg\":15,\"saleprice\":null,\"modelno\":\"P8C\",\"pricestate\":null,\"body\":\"2dr Car\",\"type\":\"New\",\"daysinstock\":61,\"tradeindiscount\":null,\"dateinstock\":\"2016-11-17 00:00:00.000\",\"transmission\":\"Manual\",\"trim\":\"GT\",\"balance\":0,\"localdiscount\":null,\"options\":[\"EQUIPMENT GROUP 300A\",\"FRONT LICENSE PLATE BRACKET  -inc: Standard in states where required by law\",\"ENGINE: 5.0L TI-VCT V8  (STD)\",\"TRANSMISSION: 6-SPEED MANUAL  -inc: reverse lockout pull ring (STD)\",\"OXFORD WHITE\",\"Rear Wheel Drive\",\"Power Steering\",\"ABS\",\"4-Wheel Disc Brakes\",\"Brake Assist\",\"Locking/Limited Slip Differential\",\"Aluminum Wheels\",\"Tires - Front Performance\",\"Tires - Rear Performance\",\"Power Mirror(s)\",\"Rear Defrost\",\"Intermittent Wipers\",\"Variable Speed Intermittent Wipers\",\"Rear Spoiler\",\"HID headlights\",\"Automatic Headlights\",\"Fog Lamps\",\"AM/FM Stereo\",\"CD Player\",\"MP3 Player\",\"Auxiliary Audio Input\",\"Steering Wheel Audio Controls\",\"Bluetooth Connection\",\"Telematics\",\"Smart Device Integration\",\"Pass-Through Rear Seat\",\"Rear Bench Seat\",\"Adjustable Steering Wheel\",\"Trip Computer\",\"Leather Steering Wheel\",\"Keyless Entry\",\"Power Door Locks\",\"Keyless Start\",\"Cruise Control\",\"A/C\",\"Power Driver Seat\",\"Power Passenger Seat\",\"Cloth Seats\",\"Bucket Seats\",\"Driver Adjustable Lumbar\",\"Auto-Dimming Rearview Mirror\",\"Driver Vanity Mirror\",\"Passenger Vanity Mirror\",\"Driver Illuminated Vanity Mirror\",\"Passenger Illuminated Visor Mirror\",\"Floor Mats\",\"Power Windows\",\"Security System\",\"Engine Immobilizer\",\"Traction Control\",\"Stability Control\",\"Front Side Air Bag\",\"Tire Pressure Monitor\",\"Driver Air Bag\",\"Passenger Air Bag\",\"Front Head Air Bag\",\"Rear Head Air Bag\",\"Passenger Air Bag Sensor\",\"Knee Air Bag\",\"Back-Up Camera\"],\"model\":\"Mustang\",\"vin\":\"1FA6P8CF8H5244830\",\"state\":0,\"stock\":\"170238\",\"locked\":null,\"enginedisplacement\":\"5.0 L\",\"intcolorhex\":\"\",\"created\":\"2016-11-23 19:18:39.963\",\"internetprice\":0,\"drivetrain\":\"RWD\",\"doors\":2,\"zipcode\":\"91791\",\"expiresin\":null,\"transmissionspeed\":6,\"categorizedoptions\":null,\"intcolor\":\"Ebony\",\"sellingprice\":0,\"dealerzipcode\":null,\"extcolor\":\"Oxford White\",\"expiration\":null,\"modifiedby\":null,\"updated\":\"2016-11-23 19:18:39.963\",\"intcolorcode\":\"21\",\"description\":null,\"imagelist\":[\"https://content.homenetiol.com/2001413/2104010/640x480/stock_images/7/cc_2017FOC050002_640/cc_2017FOC050002_640_YZ.jpg\",\"https://content.homenetiol.com/2001413/2104010/640x480/stock_images/5/2017FOC050002_640/2017FOC050002_640_01.jpg\",\"https://content.homenetiol.com/2001413/2104010/640x480/stock_images/5/2017FOC050002_640/2017FOC050002_640_02.jpg\",\"https://content.homenetiol.com/2001413/2104010/640x480/stock_images/5/2017FOC050002_640/2017FOC050002_640_03.jpg\",\"https://content.homenetiol.com/2001413/2104010/640x480/stock_images/5/2017FOC050002_640/2017FOC050002_640_12.jpg\"],\"providerdealerid\":\"1019343\",\"pkg\":null,\"valid\":null,\"dealername\":\"Ford Of West Covina\",\"expired\":null,\"provider\":\"Homenet\",\"interest\":0,\"extcolorhex\":\"E7E7E5\",\"msrp\":0,\"dailyagediscount\":0,\"make\":\"Ford\",\"highwaympg\":25,\"extcolorcode\":\"YZ\",\"uquoteprice\":null,\"miscprice2\":5000,\"tradein\":null,\"miscprice1\":38820,\"miscprice3\":0,\"passengercapacity\":4,\"financediscount\":null,\"styledescription\":\"GT Fastback\",\"location\":null,\"enginecylinders\":8,\"invoice\":32059,\"factorycodes\":[\"YZ\",\"1\",\"300A\",\"99F\",\"44X\",\"ZZ1\",\"153\",\"425\",\"ZZ2\",\"ZZ3\",\"D1\"],\"finance\":null}]}",
    "convertedResponse" : null,
    "statusCode" : 200,
    "headers" : {
      "Date" : [ "Tue, 17 Jan 2017 23:59:56 GMT" ],
      "transfer-encoding" : [ "chunked" ],
      "Content-Type" : [ "application/json" ],
      "Connection" : [ "keep-alive" ],
      "Server" : [ "Apache TomEE" ]
    }
  },
  "redirectEnabled" : true,
  "proxy" : null
}