{
  "endpointAddress" : "http://devws.autolink.services/servicesMonza/facebook/dealer/740927/vehicle/send",
  "method" : "POST",
  "requestBody" : "",
  "headers" : { },
  "queryParams" : { },
  "sampleHttpResponseDetails" : {
    "responseBody" : "{\"attachment\":{\"payload\":{\"elements\":[{\"buttons\":[{\"webview_height_ratio\":\"tall\",\"type\":\"web_url\",\"title\":\"Features & Options\",\"url\":\"http://devws.autolink.services/servicesMonza/vehicle/infoall?vin=1C3CCCFB8GN183308&zipcode=94577\"},{\"webview_height_ratio\":\"tall\",\"type\":\"web_url\",\"title\":\"MSRP & Rebates\",\"url\":\"http://devws.autolink.services/servicesMonza/vehicle/info?vin=1C3CCCFB8GN183308&zipcode=94577&element=price\"},{\"payload\":\"+16692438651\",\"type\":\"phone_number\",\"title\":\"Call For Price\"}],\"image_url\":\"http://res.cloudinary.com/uquote/image/upload/homenet/2001413/2104010/640x480/76c69db0406842df88670048a1a404e9.jpg\",\"subtitle\":\"MSRP: $23,485\\nLX Touring 4dr Sedan FWD\\n2.4 L Engine\",\"title\":\"2016 Chrysler 200 Touring (Billet Silver Metallic Clearcoat)\"}],\"template_type\":\"generic\"},\"type\":\"template\"},\"quick_replies\":[{\"content_type\":\"text\",\"payload\":\"INV_740927_Chrysler\",\"title\":\"More Chrysler Models\"}]}",
    "convertedResponse" : null,
    "statusCode" : 200,
    "headers" : {
      "Content-Type" : [ "application/json" ],
      "Date" : [ "Fri, 05 May 2017 18:12:47 GMT" ],
      "Server" : [ "Apache TomEE" ],
      "Content-Length" : [ "918" ],
      "Connection" : [ "keep-alive" ]
    }
  },
  "redirectEnabled" : true,
  "proxy" : null,
  "authType" : "NONE",
  "contentType" : "multipart/form-data",
  "multiParamInfoList" : [ {
    "type" : "STRING",
    "name" : "user",
    "list" : false,
    "testValue" : "7A2DB108-B1C1-420B-8358-21DE82DC5D34",
    "contentType" : null
  }, {
    "type" : "STRING",
    "name" : "zipcode",
    "list" : false,
    "testValue" : "94577",
    "contentType" : null
  }, {
    "type" : "STRING",
    "name" : "vin",
    "list" : false,
    "testValue" : "1C3CCCFB8GN183308",
    "contentType" : null
  } ]
}